<?xml version="1.0" encoding="UTF-8" standalone="no"?>
<svg
   xmlns:dc="http://purl.org/dc/elements/1.1/"
   xmlns:cc="http://creativecommons.org/ns#"
   xmlns:rdf="http://www.w3.org/1999/02/22-rdf-syntax-ns#"
   xmlns:svg="http://www.w3.org/2000/svg"
   xmlns="http://www.w3.org/2000/svg"
   xmlns:sodipodi="http://sodipodi.sourceforge.net/DTD/sodipodi-0.dtd"
   xmlns:inkscape="http://www.inkscape.org/namespaces/inkscape"
   inkscape:version="1.0 (4035a4fb49, 2020-05-01)"
   sodipodi:docname="aceh.svg"
   id="svg12"
   viewBox="0 0 917.73 971.55"
   style="shape-rendering:geometricPrecision; text-rendering:geometricPrecision; image-rendering:optimizeQuality; fill-rule:evenodd; clip-rule:evenodd"
   version="1.1"
   height="2514px"
   width="2375px"
   xml:space="preserve"><metadata
   id="metadata16"><rdf:RDF><cc:Work
       rdf:about=""><dc:format>image/svg+xml</dc:format><dc:type
         rdf:resource="http://purl.org/dc/dcmitype/StillImage" /></cc:Work></rdf:RDF></metadata><sodipodi:namedview
   inkscape:current-layer="svg12"
   inkscape:window-maximized="1"
   inkscape:window-y="-8"
   inkscape:window-x="-8"
   inkscape:cy="1390.6857"
   inkscape:cx="671.357"
   inkscape:zoom="0.11256961"
   showgrid="false"
   id="namedview14"
   inkscape:window-height="715"
   inkscape:window-width="1366"
   inkscape:pageshadow="2"
   inkscape:pageopacity="0"
   guidetolerance="10"
   gridtolerance="10"
   objecttolerance="10"
   borderopacity="1"
   bordercolor="#666666"
   pagecolor="#ffffff" />
 <defs
   id="defs4">
  <style
   id="style2"
   type="text/css">
   <![CDATA[
    .fil1 {fill:none}
    .fil0 {fill:#FC9A10}
   ]]>
  </style>
 
  
  
  
 </defs>
 <path
   style="fill:#b99225;fill-opacity:1"
   class="fil0"
   d="m 378.56,774.15 h 160.61 v 12.68 h -6.69 -17.93 -111.37 -17.93 -6.69 z M 366.57,149.88 c -0.01,-23.89 -0.01,-54.07 -0.03,-54.96 -0.37,-30.04 11.53,-57.91 47.44,-59.31 20.22,-0.78 39.87,11.09 45.21,32.7 5.34,-21.61 24.99,-33.48 45.21,-32.7 35.91,1.4 47.81,29.27 47.44,59.31 -0.01,0.92 -0.02,32.85 -0.03,57.03 3.51,-13.96 7.31,-27.98 10.9,-38.4 7.6,-22.11 25.16,-33.8 49.18,-25.06 14.81,5.39 24.32,22.43 17.31,40.88 -6.68,17.57 -25.01,21.5 -37.87,16.02 -13.07,-5.57 -19.37,-22.24 -10.63,-34.98 6.89,-10.05 19.43,-11.1 26.82,-5.84 6.67,4.74 9.42,14.44 5.08,20.76 -5.5,8.03 -14.42,6.71 -21.64,0.48 l 6.86,-8.78 c 1.04,2.32 5.33,3.46 5.84,1.18 0.71,-3.23 -2.64,-5.75 -5.64,-6.05 -10.59,-1.06 -15.3,15.25 -3.17,22.3 6.39,3.72 19.19,3 23.81,-10.14 3.14,-8.96 -1.22,-21.61 -11.23,-25.46 -15.58,-6.01 -28.09,2.21 -33.03,16.64 -5.61,16.36 -13.45,49.16 -18.52,70.66 20.43,-15.19 39.12,-20.59 68.19,-21.41 36.54,-1.02 66.87,14.47 103.88,20.46 60.52,9.78 98.17,6.11 144.98,-36.99 l 8.38,11.48 c -92.92,61.66 -156.28,184.53 -156.28,326.08 0,141.54 63.36,264.41 156.28,326.07 l -8.38,11.49 c -46.81,-43.11 -84.46,-46.78 -144.98,-36.99 -37.01,5.98 -67.34,21.47 -103.88,20.45 -29.07,-0.81 -47.76,-6.22 -68.19,-21.4 5.07,21.49 12.91,54.29 18.52,70.65 4.94,14.43 17.45,22.65 33.03,16.64 10.01,-3.85 14.37,-16.5 11.23,-25.45 -4.62,-13.15 -17.42,-13.86 -23.81,-10.15 -12.13,7.05 -7.42,23.36 3.17,22.31 3,-0.31 6.35,-2.83 5.64,-6.06 -0.51,-2.28 -4.8,-1.13 -5.84,1.18 l -6.86,-8.78 c 7.22,-6.23 16.14,-7.55 21.64,0.48 4.34,6.32 1.59,16.02 -5.08,20.76 -7.39,5.26 -19.93,4.21 -26.82,-5.84 -8.74,-12.74 -2.44,-29.41 10.63,-34.97 12.86,-5.48 31.19,-1.56 37.87,16.01 7.01,18.45 -2.5,35.5 -17.31,40.88 -24.02,8.74 -41.58,-2.95 -49.18,-25.05 -3.59,-10.43 -7.39,-24.45 -10.9,-38.4 0.01,24.18 0.02,56.1 0.03,57.02 0.37,30.05 -11.53,57.91 -47.44,59.31 -20.22,0.78 -39.87,-11.09 -45.21,-32.69 -5.34,21.6 -24.99,33.47 -45.21,32.69 -35.91,-1.4 -47.81,-29.26 -47.44,-59.31 0.02,-0.89 0.02,-31.06 0.03,-54.96 -3.36,13.27 -6.97,26.43 -10.38,36.34 -7.6,22.1 -25.16,33.79 -49.18,25.05 -14.8,-5.38 -24.32,-22.43 -17.31,-40.88 6.68,-17.57 25.01,-21.49 37.88,-16.01 13.06,5.56 19.36,22.23 10.63,34.97 -6.9,10.05 -19.44,11.1 -26.83,5.84 -6.67,-4.74 -9.42,-14.44 -5.08,-20.76 5.5,-8.03 14.43,-6.71 21.64,-0.48 l -6.86,8.78 c -1.04,-2.31 -5.33,-3.46 -5.83,-1.18 -0.72,3.23 2.63,5.75 5.64,6.06 10.59,1.05 15.29,-15.26 3.16,-22.31 -6.39,-3.71 -19.18,-3 -23.8,10.15 -3.15,8.95 1.21,21.6 11.22,25.45 15.58,6.01 28.09,-2.21 33.04,-16.64 5.7,-16.64 13.71,-50.26 18.77,-71.73 -21,16.01 -39.88,21.65 -69.62,22.48 -36.54,1.02 -66.86,-14.47 -103.88,-20.45 -60.52,-9.79 -98.17,-6.12 -144.98,36.99 L 36.42,811.85 C 129.34,750.19 192.7,627.32 192.7,485.78 192.7,344.23 129.34,221.36 36.42,159.7 l 8.38,-11.48 c 46.81,43.1 84.46,46.77 144.98,36.99 37.02,-5.99 67.34,-21.48 103.88,-20.46 29.74,0.83 48.62,6.48 69.62,22.48 -5.06,-21.46 -13.07,-55.09 -18.77,-71.73 -4.95,-14.43 -17.46,-22.65 -33.04,-16.64 -10.01,3.85 -14.37,16.5 -11.22,25.46 4.62,13.14 17.41,13.86 23.8,10.14 12.13,-7.05 7.43,-23.36 -3.16,-22.3 -3.01,0.3 -6.36,2.82 -5.64,6.05 0.5,2.28 4.79,1.14 5.83,-1.18 l 6.86,8.78 c -7.21,6.23 -16.14,7.55 -21.64,-0.48 -4.34,-6.32 -1.59,-16.02 5.08,-20.76 7.39,-5.26 19.93,-4.21 26.83,5.84 8.73,12.74 2.43,29.41 -10.63,34.98 -12.87,5.48 -31.2,1.55 -37.88,-16.02 -7.01,-18.45 2.51,-35.49 17.31,-40.88 24.02,-8.74 41.58,2.95 49.18,25.06 3.41,9.9 7.02,23.06 10.38,36.33 z m 92.62,-57.86 c -4.49,17.47 -19.29,29.01 -38.93,28.64 -19.64,-0.37 -38.61,-13.11 -35.77,-39.91 2.04,-19.17 18.09,-28.54 33.06,-27.88 14.33,0.62 27.67,10.44 26.76,29.63 -0.66,13.87 -12.23,22.45 -23.27,21.91 -12.14,-0.59 -23.76,-9.79 -20,-24.71 2.37,-9.4 10.6,-12.56 17.54,-11.1 6.29,1.32 11.52,6.43 10.39,14.11 -0.28,1.94 -2.15,5.36 -4.44,7.66 l -7.94,-5.86 c 2.73,-2.98 0.98,-5.51 0.27,-5.87 -2.51,-1.28 -5.15,2.47 -5.33,5.72 -0.28,4.93 3.52,8.95 9.05,9.37 4.97,0.38 10.19,-1.39 12.45,-9.94 3.07,-11.62 -6.17,-19.13 -15.58,-20.01 -9.36,-0.87 -19.8,5.28 -21.15,18.19 -1.97,18.72 10.96,26.92 24.36,27.1 16.91,0.24 27.46,-11.7 28.43,-27.72 1.23,-20.37 -15.83,-34.11 -33.9,-34.05 -28.13,0.08 -37.07,24.74 -36.78,47.92 0.02,1.17 0.03,57.2 0.03,76.83 h 19.49 l 51.97,-51.98 8.97,-8.96 8.96,8.96 51.97,51.98 h 20.14 c 0.01,-19.63 0.02,-75.66 0.03,-76.83 0.29,-23.18 -8.65,-47.84 -36.78,-47.92 -18.07,-0.06 -35.13,13.68 -33.89,34.05 0.97,16.02 11.51,27.96 28.42,27.72 13.4,-0.18 26.33,-8.38 24.37,-27.1 -1.36,-12.91 -11.8,-19.06 -21.16,-18.19 -9.41,0.88 -18.65,8.39 -15.58,20.01 2.26,8.55 7.48,10.32 12.45,9.94 5.53,-0.42 9.34,-4.44 9.05,-9.37 -0.18,-3.25 -2.82,-7 -5.33,-5.72 -0.71,0.36 -2.46,2.89 0.27,5.87 l -7.94,5.86 c -2.29,-2.3 -4.16,-5.72 -4.44,-7.66 -1.13,-7.68 4.1,-12.79 10.39,-14.11 6.94,-1.46 15.17,1.7 17.54,11.1 3.76,14.92 -7.86,24.12 -20,24.71 -11.04,0.54 -22.61,-8.04 -23.27,-21.91 -0.91,-19.19 12.43,-29.01 26.77,-29.63 14.96,-0.66 31.01,8.71 33.05,27.88 2.84,26.8 -16.13,39.54 -35.77,39.91 -19.64,0.37 -34.43,-11.17 -38.93,-28.64 z m 0,787.51 c -4.49,-17.46 -19.29,-29.01 -38.93,-28.64 -19.64,0.37 -38.61,13.12 -35.77,39.92 2.04,19.16 18.09,28.53 33.06,27.88 14.33,-0.63 27.67,-10.45 26.76,-29.64 -0.66,-13.86 -12.23,-22.45 -23.27,-21.91 -12.14,0.59 -23.76,9.79 -20,24.71 2.37,9.41 10.6,12.56 17.54,11.1 6.29,-1.32 11.52,-6.43 10.39,-14.11 -0.28,-1.94 -2.15,-5.36 -4.44,-7.65 l -7.94,5.85 c 2.73,2.98 0.98,5.51 0.27,5.87 -2.51,1.28 -5.15,-2.47 -5.33,-5.71 -0.28,-4.94 3.52,-8.96 9.05,-9.38 4.97,-0.38 10.19,1.39 12.45,9.94 3.07,11.62 -6.17,19.13 -15.58,20.01 -9.36,0.87 -19.8,-5.28 -21.15,-18.19 -1.97,-18.71 10.96,-26.92 24.36,-27.1 16.91,-0.24 27.46,11.7 28.43,27.72 1.23,20.37 -15.83,34.11 -33.9,34.06 -28.13,-0.09 -37.07,-24.75 -36.78,-47.93 0.02,-1.17 0.03,-57.19 0.03,-76.82 h 19.49 l 51.97,51.97 8.97,8.97 8.96,-8.97 51.97,-51.97 h 20.14 c 0.01,19.63 0.02,75.65 0.03,76.82 0.29,23.18 -8.65,47.84 -36.78,47.93 -18.07,0.05 -35.13,-13.69 -33.89,-34.06 0.97,-16.02 11.51,-27.96 28.42,-27.72 13.4,0.18 26.33,8.39 24.37,27.1 -1.36,12.91 -11.8,19.06 -21.16,18.19 -9.41,-0.88 -18.65,-8.39 -15.58,-20.01 2.26,-8.55 7.48,-10.32 12.45,-9.94 5.53,0.42 9.34,4.44 9.05,9.38 -0.18,3.24 -2.82,6.99 -5.33,5.71 -0.71,-0.36 -2.46,-2.89 0.27,-5.87 l -7.94,-5.85 c -2.29,2.29 -4.16,5.71 -4.44,7.65 -1.13,7.68 4.1,12.79 10.39,14.11 6.94,1.46 15.17,-1.69 17.54,-11.1 3.76,-14.92 -7.86,-24.12 -20,-24.71 -11.04,-0.54 -22.61,8.05 -23.27,21.91 -0.91,19.19 12.43,29.01 26.77,29.64 14.96,0.65 31.01,-8.72 33.05,-27.88 2.84,-26.8 -16.13,-39.55 -35.77,-39.92 -19.64,-0.37 -34.43,11.18 -38.93,28.64 z M 627.34,473.15 c -3.31,-23.26 -16.8,-45.76 -42.05,-38.72 -10.63,2.96 -16.04,12.64 -15.99,19.74 0.07,8.29 6.65,16.19 14.76,16.21 11.19,0.03 13.07,-14.02 6.59,-18.33 -3.56,-2.36 -9.26,3.23 -2.3,6.32 l -5.12,7.74 c -8.24,-3.05 -12.14,-13.52 -4.99,-21.16 7.04,-7.53 21.2,-3.7 25.53,6.57 6.63,15.74 -6.01,29.63 -20.62,29.26 -15.5,-0.4 -24.48,-12.89 -24.61,-26.46 -0.13,-13.18 8.21,-27.74 28.35,-31.16 17.11,-2.91 30.07,4.33 38.8,16.3 -6.89,-21.41 -27.81,-34.71 -49.2,-27.81 -7.54,2.44 -11.19,8.88 -7.18,15.61 l -9.01,6.23 c -8.16,-13.73 -1.54,-27.67 12.59,-32.18 20.46,-6.53 40.15,0.63 52.66,15.64 -7.26,-22.53 -29.18,-40.66 -49.05,-33.7 -7.49,2.63 -11.27,8.76 -7.19,15.61 l -9.01,6.23 c -9.56,-16.1 1.34,-30.67 17.46,-33.41 20.62,-3.51 39.08,7.78 50.23,24.97 -5.98,-20.3 -18.41,-38.94 -41.29,-42.57 -10.43,-1.66 -24.03,5.03 -17.39,16.17 l -9.01,6.23 c -13.23,-22.28 11.69,-38.95 33.58,-31.99 19.77,6.29 31.6,18.2 38.96,33.71 -4.47,-24.28 -15.17,-42.86 -41.25,-51.28 -13.11,-4.23 -29.58,2.76 -22.28,15.01 l -9.01,6.23 c -14.07,-23.71 14.29,-43.88 46,-26.92 15.57,8.33 24.67,18.6 30.34,31.22 -3.76,-28 -25.14,-55.11 -53.48,-55.97 -8.86,-0.27 -19.85,6.39 -13.85,16.45 l -9.01,6.23 c -11.04,-18.59 5.16,-34.15 23.23,-33.63 26.51,0.77 47.57,19.74 57.86,43.8 -6.04,-28.83 -17.92,-50.93 -48.87,-60.3 -13.39,-4.06 -30.77,2.35 -23.21,15.02 l -9.01,6.23 c -2.53,-4.26 -4.16,-7.26 -3.89,-12.46 1.26,-24.69 33.02,-23.79 51.54,-14.47 21.06,10.61 31.74,24.62 38.28,42.58 l 0.13,-0.55 c -5.39,-27.66 -13.15,-49.05 -41.79,-62.28 -9.05,-4.18 -36.4,-10.15 -37.23,5.87 -0.11,2.31 0.85,3.78 1.97,5.66 l -9.01,6.23 c -2.53,-4.26 -4.16,-7.27 -3.89,-12.46 1.28,-25.07 34.53,-23.65 52.74,-15.25 23.22,10.72 34.57,26.05 41.42,45.38 -6.21,-32.92 -24.89,-76.13 -63.31,-76.54 -11.33,-0.12 -23.4,12.51 -17.78,23.54 l -9.34,5.72 c -10.78,-21.24 9.51,-43.05 32.87,-39.76 34.52,4.85 53.46,33.41 63.09,63.98 0.87,-19.12 -2.12,-52.85 -16.94,-60.75 -4.98,-2.66 -12.63,-1.54 -16.63,2.28 l -8.57,-6.81 c 4.17,-4.02 8.06,-6.1 11.46,-6.94 29.94,-7.42 39.64,27.37 41.39,55.89 7.66,-17.13 18.83,-34.22 35.39,-39.19 11.2,-3.36 23.3,0.63 28.53,11.15 l -10.13,4.17 c -1.32,-2.66 -3.04,-3.93 -6.06,-4.67 -21.2,-5.18 -35.96,26.78 -43.07,46.09 19.98,-23.01 46.99,-41.97 77.03,-44.2 29.39,-2.18 42.62,25.72 17.12,44.84 l -6.18,-9.04 c 14.69,-11.02 9.02,-23.97 -4.56,-24.93 -30.41,-2.16 -63.37,24.87 -82.76,50.07 21.17,-19.05 50.1,-31.82 70.4,-28.69 17.07,2.63 22.72,18.74 14.75,33.14 -2.32,4.21 -5.57,7.83 -8.89,10.85 l -7.48,-8 c 3.55,-3.85 6.94,-6.76 8.63,-11.86 9.94,-29.97 -73.94,-5.49 -91.19,40.26 18.26,-20.6 46.28,-34.73 68.01,-30.3 18.58,3.8 22.61,24 12.16,39.95 l -8.41,-7.02 c 1.72,-2.61 2.45,-3.19 3.13,-6.17 7.72,-33.53 -65.89,-11.84 -80.5,32.98 15.73,-18.4 39.21,-30.97 60.28,-28.13 21.33,2.87 26.15,19.3 14.49,37.13 l -8.69,-6.66 c 21.74,-33.1 -52.33,-23.56 -69.87,24.1 14.02,-16.43 34.22,-27.41 54.01,-24.15 20.68,3.4 26.25,19.41 17.13,37.64 l -9.37,-5.67 c 17,-33.79 -50.29,-27.29 -66.26,20.81 13.57,-15.69 33.09,-25.72 52.71,-21.98 15.91,3.03 26.93,18.63 17.12,34 l -8.88,-6.42 c 13.68,-21.36 -44.54,-28.4 -63.28,17.26 13.73,-14.71 34.85,-21.66 55.11,-15.2 14.13,4.51 19.83,19.81 11.67,33.55 l -9,-6.23 c 4.01,-6.73 1.27,-14.54 -6.27,-16.98 -21.4,-6.9 -45.38,6.41 -53.11,27.84 8.74,-11.98 21.71,-19.24 38.84,-16.33 20.13,3.42 28.47,17.98 28.35,31.16 -0.14,13.57 -9.12,26.06 -24.62,26.46 -14.61,0.37 -27.25,-13.52 -20.61,-29.26 4.33,-10.27 18.48,-14.1 25.53,-6.57 7.14,7.64 3.24,18.11 -5,21.16 l -5.12,-7.74 c 6.97,-3.09 1.26,-8.68 -2.3,-6.32 -6.47,4.31 -4.6,18.36 6.59,18.33 8.11,-0.02 14.69,-7.92 14.76,-16.21 0.06,-7.1 -5.36,-16.78 -15.99,-19.74 -25.24,-7.04 -38.73,15.45 -42.04,38.7 -0.07,4.2 -0.11,8.42 -0.11,12.65 0,4.22 0.04,8.44 0.11,12.65 3.31,23.25 16.8,45.73 42.04,38.69 10.63,-2.96 16.05,-12.64 15.99,-19.73 -0.07,-8.29 -6.65,-16.2 -14.76,-16.22 -11.19,-0.03 -13.06,14.03 -6.59,18.33 3.56,2.36 9.27,-3.23 2.3,-6.31 l 5.12,-7.75 c 8.24,3.05 12.14,13.53 5,21.16 -7.05,7.53 -21.2,3.71 -25.53,-6.56 -6.64,-15.75 6,-29.64 20.61,-29.26 15.5,0.4 24.48,12.88 24.62,26.45 0.12,13.18 -8.22,27.75 -28.35,31.17 -17.13,2.91 -30.1,-4.36 -38.84,-16.34 7.73,21.43 31.71,34.74 53.11,27.84 7.54,-2.43 10.28,-10.25 6.27,-16.98 l 9,-6.23 c 8.16,13.74 2.46,29.05 -11.67,33.55 -20.26,6.47 -41.38,-0.49 -55.11,-15.2 18.74,45.66 76.96,38.62 63.28,17.26 l 8.88,-6.41 c 9.81,15.36 -1.21,30.96 -17.12,34 -19.62,3.74 -39.14,-6.29 -52.71,-21.99 15.97,48.11 83.26,54.61 66.26,20.81 l 9.37,-5.67 c 9.12,18.24 3.55,34.25 -17.13,37.64 -19.79,3.26 -39.99,-7.71 -54.01,-24.15 17.54,47.66 91.61,57.21 69.87,24.11 l 8.69,-6.67 c 11.66,17.83 6.84,34.26 -14.49,37.13 -21.07,2.84 -44.55,-9.73 -60.28,-28.13 14.61,44.83 88.22,66.51 80.5,32.98 -0.68,-2.98 -1.41,-3.56 -3.13,-6.17 l 8.41,-7.02 c 10.45,15.95 6.42,36.15 -12.16,39.95 -21.73,4.44 -49.75,-9.7 -68.01,-30.29 17.25,45.74 101.13,70.22 91.19,40.25 -1.69,-5.1 -5.08,-8.01 -8.63,-11.86 l 7.48,-7.99 c 3.32,3.01 6.57,6.63 8.89,10.84 7.97,14.41 2.32,30.51 -14.75,33.14 -20.3,3.13 -49.23,-9.64 -70.4,-28.69 19.39,25.2 52.35,52.23 82.76,50.07 13.58,-0.96 19.25,-13.91 4.56,-24.93 l 6.18,-9.04 c 25.5,19.12 12.27,47.02 -17.12,44.84 -30.04,-2.23 -57.05,-21.19 -77.03,-44.2 7.11,19.31 21.87,51.27 43.07,46.09 3.02,-0.74 4.74,-2.01 6.06,-4.67 l 10.13,4.17 c -5.23,10.52 -17.33,14.51 -28.53,11.15 -16.56,-4.97 -27.73,-22.06 -35.39,-39.19 -1.75,28.53 -11.45,63.31 -41.39,55.89 -3.4,-0.84 -7.29,-2.91 -11.46,-6.93 l 8.57,-6.82 c 4,3.83 11.65,4.94 16.63,2.28 14.82,-7.9 17.81,-41.62 16.94,-60.75 -9.63,30.57 -28.57,59.14 -63.09,63.99 -23.36,3.28 -43.65,-18.52 -32.87,-39.77 l 9.34,5.72 c -5.62,11.03 6.45,23.66 17.78,23.54 38.42,-0.41 57.1,-43.62 63.31,-76.53 -6.85,19.33 -18.2,34.66 -41.42,45.37 -18.21,8.41 -51.46,9.82 -52.74,-15.24 -0.27,-5.2 1.36,-8.2 3.89,-12.47 l 9.01,6.23 c -1.12,1.88 -2.08,3.36 -1.97,5.66 0.83,16.02 28.18,10.06 37.23,5.87 28.64,-13.23 36.4,-34.62 41.79,-62.27 l -0.13,-0.56 c -6.54,17.96 -17.22,31.97 -38.28,42.58 -18.52,9.33 -50.28,10.22 -51.54,-14.47 -0.27,-5.2 1.36,-8.2 3.89,-12.46 l 9.01,6.23 c -7.56,12.68 9.82,19.08 23.21,15.03 30.95,-9.37 42.83,-31.48 48.87,-60.31 -10.29,24.06 -31.35,43.03 -57.86,43.8 -18.07,0.52 -34.27,-15.04 -23.23,-33.63 l 9.01,6.23 c -6,10.06 4.99,16.72 13.85,16.45 28.34,-0.86 49.72,-27.97 53.48,-55.96 -5.67,12.61 -14.77,22.88 -30.34,31.21 -31.71,16.96 -60.07,-3.21 -46,-26.92 l 9.01,6.24 c -7.3,12.24 9.17,19.23 22.28,15 26.08,-8.42 36.78,-27 41.25,-51.28 -7.36,15.52 -19.19,27.42 -38.96,33.71 -21.89,6.96 -46.81,-9.71 -33.58,-31.99 l 9.01,6.24 c -6.64,11.13 6.96,17.82 17.39,16.17 22.88,-3.64 35.31,-22.28 41.29,-42.57 -11.15,17.18 -29.61,28.48 -50.23,24.96 -16.12,-2.74 -27.02,-17.31 -17.46,-33.41 l 9.01,6.23 c -4.08,6.85 -0.3,12.99 7.19,15.61 19.87,6.96 41.79,-11.16 49.05,-33.69 -12.51,15 -32.2,22.16 -52.66,15.63 -14.13,-4.51 -20.75,-18.44 -12.59,-32.18 l 9.01,6.23 c -4.01,6.73 -0.36,13.17 7.18,15.61 21.39,6.9 42.31,-6.39 49.2,-27.8 -8.73,11.96 -21.69,19.2 -38.8,16.3 -20.14,-3.42 -28.48,-17.99 -28.35,-31.17 0.13,-13.57 9.11,-26.05 24.61,-26.45 14.61,-0.38 27.25,13.51 20.62,29.26 -4.33,10.27 -18.49,14.09 -25.53,6.56 -7.15,-7.63 -3.25,-18.11 4.99,-21.16 l 5.12,7.75 c -6.96,3.08 -1.26,8.67 2.3,6.31 6.48,-4.3 4.6,-18.36 -6.59,-18.33 -8.11,0.02 -14.69,7.93 -14.76,16.22 -0.05,7.09 5.36,16.77 15.99,19.73 25.25,7.05 38.74,-15.46 42.05,-38.71 -0.06,-4.2 -0.09,-8.41 -0.09,-12.63 0,-4.22 0.03,-8.43 0.09,-12.63 z m -75.49,294.24 c 26.87,23.52 53.13,29.97 88.35,27.12 24.87,-2.02 57.37,-15.25 86.11,-19.9 37.62,-6.08 67.07,-6.98 95.02,2.56 C 754.92,707.35 712.7,602.73 712.7,485.78 c 0,-116.96 42.22,-221.58 108.63,-291.39 -27.95,9.53 -57.4,8.63 -95.02,2.55 -28.74,-4.64 -61.24,-17.88 -86.11,-19.9 -35.22,-2.85 -61.48,3.6 -88.35,27.12 z m 99.98,-78.13 0.08,0.33 -0.18,-0.02 z m 0,-406.96 0.08,-0.34 -0.18,0.02 z M 290.39,473.15 c 3.31,-23.26 16.8,-45.76 42.05,-38.72 10.63,2.96 16.04,12.64 15.99,19.74 -0.07,8.29 -6.65,16.19 -14.76,16.21 -11.19,0.03 -13.07,-14.02 -6.59,-18.33 3.56,-2.36 9.26,3.23 2.3,6.32 l 5.12,7.74 c 8.24,-3.05 12.14,-13.52 4.99,-21.16 -7.04,-7.53 -21.2,-3.7 -25.53,6.57 -6.63,15.74 6.01,29.63 20.62,29.26 15.5,-0.4 24.48,-12.89 24.61,-26.46 0.13,-13.18 -8.21,-27.74 -28.35,-31.16 -17.11,-2.91 -30.07,4.33 -38.8,16.3 6.89,-21.41 27.81,-34.71 49.2,-27.81 7.54,2.44 11.19,8.88 7.18,15.61 l 9.01,6.23 c 8.16,-13.73 1.54,-27.67 -12.59,-32.18 -20.46,-6.53 -40.15,0.63 -52.66,15.64 7.27,-22.53 29.18,-40.66 49.05,-33.7 7.49,2.63 11.27,8.76 7.19,15.61 l 9.01,6.23 c 9.56,-16.1 -1.34,-30.67 -17.46,-33.41 -20.61,-3.51 -39.08,7.78 -50.23,24.97 5.98,-20.3 18.41,-38.94 41.29,-42.57 10.43,-1.66 24.03,5.03 17.39,16.17 l 9.01,6.23 c 13.23,-22.28 -11.69,-38.95 -33.58,-31.99 -19.77,6.29 -31.6,18.2 -38.96,33.71 4.47,-24.28 15.17,-42.86 41.25,-51.28 13.11,-4.23 29.58,2.76 22.28,15.01 l 9.01,6.23 c 14.07,-23.71 -14.29,-43.88 -46,-26.92 -15.57,8.33 -24.67,18.6 -30.34,31.22 3.76,-28 25.14,-55.11 53.48,-55.97 8.86,-0.27 19.85,6.39 13.85,16.45 l 9.01,6.23 c 11.04,-18.59 -5.16,-34.15 -23.23,-33.63 -26.51,0.77 -47.57,19.74 -57.86,43.8 6.05,-28.83 17.92,-50.93 48.87,-60.3 13.39,-4.06 30.77,2.35 23.21,15.02 l 9.01,6.23 c 2.53,-4.26 4.16,-7.26 3.89,-12.46 -1.26,-24.69 -33.02,-23.79 -51.53,-14.47 -21.07,10.61 -31.75,24.62 -38.29,42.58 l -0.12,-0.55 c 5.38,-27.66 13.14,-49.05 41.78,-62.28 9.06,-4.18 36.41,-10.15 37.23,5.87 0.11,2.31 -0.85,3.78 -1.97,5.66 l 9.01,6.23 c 2.53,-4.26 4.16,-7.27 3.89,-12.46 -1.28,-25.07 -34.53,-23.65 -52.74,-15.25 -23.22,10.72 -34.57,26.05 -41.42,45.38 6.21,-32.92 24.89,-76.13 63.31,-76.54 11.33,-0.12 23.4,12.51 17.78,23.54 l 9.34,5.72 c 10.78,-21.24 -9.51,-43.05 -32.87,-39.76 -34.52,4.85 -53.46,33.41 -63.09,63.98 -0.87,-19.12 2.12,-52.85 16.94,-60.75 4.98,-2.66 12.63,-1.54 16.63,2.28 l 8.57,-6.81 c -4.17,-4.02 -8.06,-6.1 -11.46,-6.94 -29.94,-7.42 -39.64,27.37 -41.39,55.89 -7.66,-17.13 -18.83,-34.22 -35.39,-39.19 -11.2,-3.36 -23.3,0.63 -28.53,11.15 l 10.13,4.17 c 1.32,-2.66 3.04,-3.93 6.06,-4.67 21.2,-5.18 35.96,26.78 43.07,46.09 -19.98,-23.01 -46.99,-41.97 -77.03,-44.2 -29.39,-2.18 -42.62,25.72 -17.12,44.84 l 6.18,-9.04 c -14.69,-11.02 -9.02,-23.97 4.56,-24.93 30.41,-2.16 63.37,24.87 82.76,50.07 -21.17,-19.05 -50.1,-31.82 -70.4,-28.69 -17.07,2.63 -22.72,18.74 -14.75,33.14 2.33,4.21 5.57,7.83 8.89,10.85 l 7.48,-8 c -3.55,-3.85 -6.94,-6.76 -8.63,-11.86 -9.94,-29.97 73.94,-5.49 91.2,40.26 -18.27,-20.6 -46.29,-34.73 -68.02,-30.3 -18.58,3.8 -22.61,24 -12.16,39.95 l 8.41,-7.02 c -1.72,-2.61 -2.45,-3.19 -3.13,-6.17 -7.72,-33.53 65.89,-11.84 80.5,32.98 -15.73,-18.4 -39.21,-30.97 -60.28,-28.13 -21.33,2.87 -26.15,19.3 -14.49,37.13 l 8.69,-6.66 c -21.74,-33.1 52.33,-23.56 69.88,24.1 -14.03,-16.43 -34.23,-27.41 -54.02,-24.15 -20.68,3.4 -26.25,19.41 -17.13,37.64 l 9.37,-5.67 c -17,-33.79 50.29,-27.29 66.26,20.81 -13.57,-15.69 -33.09,-25.72 -52.71,-21.98 -15.91,3.03 -26.93,18.63 -17.12,34 l 8.88,-6.42 c -13.67,-21.36 44.54,-28.4 63.28,17.26 -13.73,-14.71 -34.85,-21.66 -55.11,-15.2 -14.13,4.51 -19.83,19.81 -11.67,33.55 l 9,-6.23 c -4.01,-6.73 -1.27,-14.54 6.27,-16.98 21.4,-6.9 45.38,6.41 53.11,27.84 -8.74,-11.98 -21.71,-19.24 -38.84,-16.33 -20.13,3.42 -28.47,17.98 -28.34,31.16 0.13,13.57 9.11,26.06 24.61,26.46 14.61,0.37 27.25,-13.52 20.61,-29.26 -4.32,-10.27 -18.48,-14.1 -25.53,-6.57 -7.14,7.64 -3.24,18.11 5,21.16 l 5.12,-7.74 c -6.97,-3.09 -1.26,-8.68 2.3,-6.32 6.47,4.31 4.6,18.36 -6.59,18.33 -8.11,-0.02 -14.69,-7.92 -14.76,-16.21 -0.06,-7.1 5.36,-16.78 15.99,-19.74 25.24,-7.04 38.73,15.45 42.05,38.7 0.06,4.2 0.1,8.42 0.1,12.65 0,4.22 -0.04,8.44 -0.1,12.65 -3.32,23.25 -16.81,45.73 -42.05,38.69 -10.63,-2.96 -16.05,-12.64 -15.99,-19.73 0.07,-8.29 6.65,-16.2 14.76,-16.22 11.19,-0.03 13.06,14.03 6.59,18.33 -3.56,2.36 -9.27,-3.23 -2.3,-6.31 l -5.12,-7.75 c -8.24,3.05 -12.14,13.53 -5,21.16 7.05,7.53 21.21,3.71 25.53,-6.56 6.64,-15.75 -6,-29.64 -20.61,-29.26 -15.5,0.4 -24.48,12.88 -24.61,26.45 -0.13,13.18 8.21,27.75 28.34,31.17 17.13,2.91 30.1,-4.36 38.84,-16.34 -7.73,21.43 -31.71,34.74 -53.11,27.84 -7.54,-2.43 -10.28,-10.25 -6.27,-16.98 l -9,-6.23 c -8.16,13.74 -2.46,29.05 11.67,33.55 20.26,6.47 41.38,-0.49 55.11,-15.2 -18.74,45.66 -76.95,38.62 -63.28,17.26 l -8.88,-6.41 c -9.81,15.36 1.21,30.96 17.12,34 19.62,3.74 39.14,-6.29 52.71,-21.99 -15.97,48.11 -83.26,54.61 -66.26,20.81 l -9.37,-5.67 c -9.12,18.24 -3.55,34.25 17.13,37.64 19.79,3.26 39.99,-7.71 54.02,-24.15 -17.55,47.66 -91.62,57.21 -69.88,24.11 l -8.69,-6.67 c -11.66,17.83 -6.84,34.26 14.49,37.13 21.07,2.84 44.55,-9.73 60.28,-28.13 -14.61,44.83 -88.22,66.51 -80.5,32.98 0.68,-2.98 1.41,-3.56 3.13,-6.17 l -8.41,-7.02 c -10.45,15.95 -6.42,36.15 12.16,39.95 21.73,4.44 49.75,-9.7 68.02,-30.29 -17.26,45.74 -101.14,70.22 -91.2,40.25 1.69,-5.1 5.08,-8.01 8.63,-11.86 l -7.48,-7.99 c -3.32,3.01 -6.56,6.63 -8.89,10.84 -7.97,14.41 -2.32,30.51 14.75,33.14 20.3,3.13 49.23,-9.64 70.4,-28.69 -19.39,25.2 -52.35,52.23 -82.76,50.07 -13.58,-0.96 -19.25,-13.91 -4.56,-24.93 l -6.18,-9.04 c -25.5,19.12 -12.27,47.02 17.12,44.84 30.04,-2.23 57.05,-21.19 77.03,-44.2 -7.11,19.31 -21.87,51.27 -43.07,46.09 -3.02,-0.74 -4.74,-2.01 -6.06,-4.67 L 187,760.44 c 5.23,10.52 17.33,14.51 28.53,11.15 16.56,-4.97 27.73,-22.06 35.39,-39.19 1.75,28.53 11.45,63.31 41.39,55.89 3.4,-0.84 7.29,-2.91 11.46,-6.93 l -8.57,-6.82 c -4,3.83 -11.65,4.94 -16.63,2.28 -14.82,-7.9 -17.81,-41.62 -16.94,-60.75 9.63,30.57 28.57,59.14 63.09,63.99 23.36,3.28 43.65,-18.52 32.87,-39.77 l -9.34,5.72 c 5.62,11.03 -6.45,23.66 -17.78,23.54 -38.42,-0.41 -57.1,-43.62 -63.31,-76.53 6.85,19.33 18.2,34.66 41.42,45.37 18.21,8.41 51.46,9.82 52.74,-15.24 0.27,-5.2 -1.36,-8.2 -3.89,-12.47 l -9.01,6.23 c 1.12,1.88 2.08,3.36 1.97,5.66 -0.82,16.02 -28.17,10.06 -37.23,5.87 -28.64,-13.23 -36.4,-34.62 -41.78,-62.27 l 0.12,-0.56 c 6.54,17.96 17.22,31.97 38.29,42.58 18.51,9.33 50.27,10.22 51.53,-14.47 0.27,-5.2 -1.36,-8.2 -3.89,-12.46 l -9.01,6.23 c 7.56,12.68 -9.82,19.08 -23.21,15.03 -30.95,-9.37 -42.82,-31.48 -48.87,-60.31 10.29,24.06 31.35,43.03 57.86,43.8 18.07,0.52 34.27,-15.04 23.23,-33.63 l -9.01,6.23 c 6,10.06 -4.99,16.72 -13.85,16.45 -28.34,-0.86 -49.72,-27.97 -53.48,-55.96 5.67,12.61 14.77,22.88 30.34,31.21 31.71,16.96 60.07,-3.21 46,-26.92 l -9.01,6.24 c 7.3,12.24 -9.17,19.23 -22.28,15 -26.08,-8.42 -36.78,-27 -41.25,-51.28 7.36,15.52 19.19,27.42 38.96,33.71 21.89,6.96 46.81,-9.71 33.58,-31.99 l -9.01,6.24 c 6.64,11.13 -6.96,17.82 -17.39,16.17 -22.88,-3.64 -35.31,-22.28 -41.29,-42.57 11.15,17.18 29.62,28.48 50.23,24.96 16.12,-2.74 27.02,-17.31 17.46,-33.41 l -9.01,6.23 c 4.08,6.85 0.3,12.99 -7.19,15.61 -19.87,6.96 -41.78,-11.16 -49.05,-33.69 12.51,15 32.2,22.16 52.66,15.63 14.13,-4.51 20.75,-18.44 12.59,-32.18 l -9.01,6.23 c 4.01,6.73 0.36,13.17 -7.18,15.61 -21.39,6.9 -42.31,-6.39 -49.2,-27.8 8.73,11.96 21.69,19.2 38.8,16.3 20.14,-3.42 28.48,-17.99 28.35,-31.17 -0.13,-13.57 -9.11,-26.05 -24.61,-26.45 -14.61,-0.38 -27.25,13.51 -20.62,29.26 4.33,10.27 18.49,14.09 25.53,6.56 7.15,-7.63 3.25,-18.11 -4.99,-21.16 l -5.12,7.75 c 6.96,3.08 1.26,8.67 -2.3,6.31 -6.48,-4.3 -4.6,-18.36 6.59,-18.33 8.11,0.02 14.69,7.93 14.76,16.22 0.05,7.09 -5.36,16.77 -15.99,19.73 -25.25,7.05 -38.74,-15.46 -42.05,-38.71 0.06,-4.2 0.09,-8.41 0.09,-12.63 0,-4.22 -0.03,-8.43 -0.09,-12.63 z m 75.49,294.24 c -26.87,23.52 -53.13,29.97 -88.35,27.12 -24.87,-2.02 -57.37,-15.25 -86.11,-19.9 -37.62,-6.08 -67.07,-6.98 -95.02,2.56 66.41,-69.82 108.63,-174.44 108.63,-291.39 0,-116.96 -42.22,-221.58 -108.63,-291.39 27.95,9.53 57.4,8.63 95.02,2.55 28.74,-4.64 61.24,-17.88 86.11,-19.9 35.22,-2.85 61.48,3.6 88.35,27.12 z m -99.98,-78.13 -0.08,0.33 0.18,-0.02 z m 0,-406.96 -0.08,-0.34 0.18,0.02 z m 192.97,549.47 8.96,-8.97 23.29,-23.29 h 10.76 l -43.01,43.01 -43.02,-43.01 h 10.76 l 23.29,23.29 z m 14.33,-32.26 -14.33,14.33 -14.34,-14.33 z m -14.33,-659.72 8.96,8.96 23.29,23.3 h 10.76 l -43.01,-43.01 -43.02,43.01 h 10.76 l 23.29,-23.3 z m 14.33,32.26 -14.33,-14.34 -14.34,14.34 z m -94.64,428.54 h 30.71 v 30.71 h -30.71 z m 43.39,0 h 30.58 v 30.71 h -30.58 z m 43.25,0 h 30.58 V 631.3 H 465.2 Z m 43.25,0 h 30.72 V 631.3 H 508.45 Z M 378.56,718.08 h 30.71 v -30.71 h -30.71 z m 43.39,0 h 30.58 v -30.71 h -30.58 z m 43.25,0 h 30.58 V 687.37 H 465.2 Z m 43.25,0 h 30.72 v -30.71 h -30.72 z m 30.72,12.68 h -30.72 v 30.71 h 30.72 z m -43.39,0 H 465.2 v 30.71 h 30.58 z m -43.25,0 h -30.58 v 30.71 h 30.58 z m -43.26,0 h -30.71 v 30.71 h 30.71 z m -30.71,-56.07 h 30.71 v -30.71 h -30.71 z m 43.39,0 h 30.58 v -30.71 h -30.58 z m 43.25,0 h 30.58 V 643.98 H 465.2 Z m 43.25,0 h 30.72 V 643.98 H 508.45 Z M 539.17,197.4 v -12.68 h -6.69 -17.93 -111.37 -17.93 -6.69 V 197.4 Z M 378.56,544.52 h 30.71 v -30.71 h -30.71 z m 43.39,0 h 30.58 v -30.71 h -30.58 z m 43.25,0 h 30.58 V 513.81 H 465.2 Z m 43.25,0 h 30.72 v -30.71 h -30.72 z m 30.72,12.68 h -30.72 v 30.71 h 30.72 z m -43.39,0 H 465.2 v 30.71 h 30.58 z m -43.25,0 h -30.58 v 30.71 h 30.58 z m -43.26,0 h -30.71 v 30.71 h 30.71 z m -30.71,-56.07 h 30.71 v -30.71 h -30.71 z m 43.39,0 h 30.58 v -30.71 h -30.58 z m 43.25,0 h 30.58 V 470.42 H 465.2 Z m 43.25,0 h 30.72 V 470.42 H 508.45 Z M 378.56,457.74 h 30.71 v -30.71 h -30.71 z m 43.39,0 h 30.58 v -30.71 h -30.58 z m 43.25,0 h 30.58 V 427.03 H 465.2 Z m 43.25,0 h 30.72 V 427.03 H 508.45 Z M 378.56,414.35 h 30.71 v -30.71 h -30.71 z m 43.39,0 h 30.58 v -30.71 h -30.58 z m 43.25,0 h 30.58 V 383.64 H 465.2 Z m 43.25,0 h 30.72 V 383.64 H 508.45 Z M 378.56,370.96 h 30.71 v -30.71 h -30.71 z m 43.39,0 h 30.58 v -30.71 h -30.58 z m 43.25,0 h 30.58 V 340.25 H 465.2 Z m 43.25,0 h 30.72 V 340.25 H 508.45 Z M 378.56,327.57 h 30.71 v -30.71 h -30.71 z m 43.39,0 h 30.58 v -30.71 h -30.58 z m 43.25,0 h 30.58 V 296.86 H 465.2 Z m 43.25,0 h 30.72 V 296.86 H 508.45 Z M 378.56,284.18 h 30.71 v -30.71 h -30.71 z m 43.39,0 h 30.58 v -30.71 h -30.58 z m 43.25,0 h 30.58 V 253.47 H 465.2 Z m 43.25,0 h 30.72 V 253.47 H 508.45 Z M 378.56,240.79 h 30.71 v -30.71 h -30.71 z m 43.39,0 h 30.58 v -30.71 h -30.58 z m 43.25,0 h 30.58 V 210.08 H 465.2 Z m 43.25,0 h 30.72 v -30.71 h -30.72 z"
   id="path7" /><rect
   class="fil1"
   width="917.72998"
   height="971.54999"
   id="rect9"
   x="0"
   y="0" />
</svg>
