{
    "version": "0.4",
    "title": "latasya-ilyas",
    "type": "page",
    "content": [
      {
        "id": "349b7cd7",
        "settings": {
          "layout": "full_width",
          "html_tag": "header",
          "background_background": "classic",
          "background_image": {
            "url": "https://my.possiblewedding.com/wp-content/uploads/2021/01/modalpipit.png",
            "id": 2527
          },
          "background_position": "center center",
          "background_repeat": "no-repeat",
          "background_size": "contain",
          "css_classes": "header",
          "custom_css": ".header{\n    padding:0;\n    height:100vh;\n    position: fixed;\n    top:0;\n    z-index: 99999;\n    width:100vw;\n}\nbody{\n    max-width: 100vw!important;\n    overflow-x: hidden\n}",
          "content_position": "middle",
          "background_overlay_background": "classic",
          "background_overlay_color": "#000000",
          "background_color": "#F1ECF3",
          "background_overlay_opacity": {
            "unit": "px",
            "size": 0,
            "sizes": []
          }
        },
        "elements": [
          {
            "id": "1a2b734",
            "settings": {
              "_column_size": 100,
              "_inline_size": null,
              "content_position": "bottom",
              "html_tag": "section",
              "space_between_widgets": 0,
              "css_classes": "logo",
              "custom_css": ".logo{\n    height:90vh;\n}",
              "animation": "fadeIn",
              "background_background": "classic"
            },
            "elements": [
              {
                "id": "29b3d6dc",
                "settings": {
                  "background_background": "classic"
                },
                "elements": [
                  {
                    "id": "1380690e",
                    "settings": {
                      "_column_size": 100,
                      "_inline_size": null,
                      "html_tag": "div",
                      "custom_css": "p{\nmargin-block-start: 0em;\nmargin-block-end:0em;    \n}"
                    },
                    "elements": [
                      {
                        "id": "703daac2",
                        "settings": {
                          "editor": "<p style=\"text-align: center;\">THE WEDDING OF</p>",
                          "text_color": "#171717",
                          "typography_typography": "custom",
                          "typography_font_family": "Josefin Sans",
                          "typography_font_size_mobile": {
                            "unit": "px",
                            "size": 12,
                            "sizes": []
                          },
                          "typography_font_weight": "400",
                          "_padding_mobile": {
                            "unit": "em",
                            "top": "",
                            "right": "",
                            "bottom": "",
                            "left": "",
                            "isLinked": true
                          }
                        },
                        "elements": [],
                        "isInner": false,
                        "widgetType": "text-editor",
                        "elType": "widget"
                      }
                    ],
                    "isInner": true,
                    "elType": "column"
                  }
                ],
                "isInner": true,
                "elType": "section"
              },
              {
                "id": "7a85d147",
                "settings": {
                  "editor": "<p><b>Latasya &amp; Ilyas</b></p>",
                  "align": "center",
                  "text_color": "#171717",
                  "typography_typography": "custom",
                  "typography_font_family": "Alex Brush",
                  "typography_font_size": {
                    "unit": "em",
                    "size": 4.2,
                    "sizes": []
                  },
                  "typography_font_size_mobile": {
                    "unit": "em",
                    "size": 1.6,
                    "sizes": []
                  },
                  "typography_font_weight": "400",
                  "_margin": {
                    "unit": "px",
                    "top": "0",
                    "right": "0",
                    "bottom": "015",
                    "left": "0",
                    "isLinked": false
                  },
                  "custom_css": "selector{\n    line-height: 0.8\n}"
                },
                "elements": [],
                "isInner": false,
                "widgetType": "text-editor",
                "elType": "widget"
              },
              {
                "id": "68bff358",
                "settings": {
                  "editor": "<p style=\"text-align: center;\">12 . 02 . 2021</p>",
                  "text_color": "#171717",
                  "typography_typography": "custom",
                  "typography_font_family": "Josefin Sans",
                  "typography_font_size_mobile": {
                    "unit": "px",
                    "size": 16,
                    "sizes": []
                  },
                  "typography_font_weight": "400",
                  "_padding_mobile": {
                    "unit": "em",
                    "top": "",
                    "right": "",
                    "bottom": "",
                    "left": "",
                    "isLinked": true
                  }
                },
                "elements": [],
                "isInner": false,
                "widgetType": "text-editor",
                "elType": "widget"
              },
              {
                "id": "51da37",
                "settings": {
                  "editor": "<p style=\"text-align: center;\">Dear : </p>",
                  "align_mobile": "center",
                  "text_color": "#171717",
                  "_css_classes": "nama-tamu"
                },
                "elements": [],
                "isInner": false,
                "widgetType": "text-editor",
                "elType": "widget"
              },
              {
                "id": "3540e2dc",
                "settings": {
                  "text": "OPEN INVITATION ",
                  "align": "center",
                  "typography_typography": "custom",
                  "typography_font_family": "Roboto",
                  "typography_font_weight": "500",
                  "button_text_color": "#000000",
                  "background_color": "#FFFFFF00",
                  "border_radius": {
                    "unit": "px",
                    "top": "20",
                    "right": "20",
                    "bottom": "20",
                    "left": "20",
                    "isLinked": true
                  },
                  "text_padding": {
                    "unit": "px",
                    "top": "20",
                    "right": "50",
                    "bottom": "20",
                    "left": "50",
                    "isLinked": false
                  },
                  "link": {
                    "url": "#top",
                    "is_external": "",
                    "nofollow": "",
                    "custom_attributes": ""
                  },
                  "button_css_id": "open-invitation",
                  "_element_id": "open-invitation",
                  "_css_classes": "opening",
                  "border_border": "solid",
                  "_padding": {
                    "unit": "px",
                    "top": "0",
                    "right": "0",
                    "bottom": "0",
                    "left": "0",
                    "isLinked": false
                  }
                },
                "elements": [],
                "isInner": false,
                "widgetType": "button",
                "elType": "widget"
              },
              {
                "id": "59c00211",
                "settings": {
                  "html": "<script>\nconst params = new URLSearchParams(document.location.search);\nlet u = params.get(\"u\");\nif(u){\n    document.getElementsByClassName(\"nama-tamu\")[0].innerHTML = \"Dear : \"+u;\n    document.getElementsByClassName(\"nama-tamu\")[0].style.textAlign=\"center\"\n}\n</script>\n<script>\n    let open=false\n   document.getElementById(\"open-invitation\").onclick = function() {\n       open=true\n       let head = document.getElementsByClassName(\"header\")[0]\n       head.style.position=\"relative\"\n       head.style.transition=\"1s\"\n      \n       var snd = new Audio(\"https://my.possiblewedding.com/wp-content/uploads/2021/01/FELIX-MERAJUT-MIMPI-VIDEO-LIRIK-.mp3\");\n        snd.type = 'audio/mp3';\n        snd.play();\n        console.log(open)\n        if (open){\n            document.getElementsByClassName(\"opening\")[0].style.display=\"none\"\n        }\n        \n   }\n   \n</script>\n<script>\n\n\n</script>"
                },
                "elements": [],
                "isInner": false,
                "widgetType": "html",
                "elType": "widget"
              }
            ],
            "isInner": false,
            "elType": "column"
          }
        ],
        "isInner": false,
        "elType": "section"
      },
      {
        "id": "49f5815e",
        "settings": {
          "margin": {
            "unit": "px",
            "top": "50",
            "right": 0,
            "bottom": "50",
            "left": 0,
            "isLinked": true
          },
          "_element_id": "top",
          "background_background": "classic"
        },
        "elements": [
          {
            "id": "7e604ba7",
            "settings": {
              "_column_size": 100,
              "_inline_size": null
            },
            "elements": [
              {
                "id": "5017570e",
                "settings": {
                  "editor": "<p>Dan di antara tanda-tanda (kebesaran)-Nya ialah Dia menciptakan pasangan-pasangan untukmu dari jenismu sendiri, agar kamu cenderung dan merasa tenteram kepadanya, dan Dia menjadikan di antaramu rasa kasih dan sayang. Sungguh, pada yang demikian itu benar-benar terdapat tanda-tanda (kebesaran Allah) bagi kaum yang berpikir.</p><p> </p><p><b>(Ar-Rum :21)</b></p>",
                  "align": "center",
                  "typography_typography": "custom",
                  "typography_font_family": "Poppins",
                  "typography_font_size": {
                    "unit": "px",
                    "size": 16,
                    "sizes": []
                  },
                  "typography_font_weight": "400"
                },
                "elements": [],
                "isInner": false,
                "widgetType": "text-editor",
                "elType": "widget"
              },
              {
                "id": "44ad6a43",
                "settings": {
                  "image": {
                    "url": "https://my.possiblewedding.com/wp-content/uploads/2021/01/burung-gold.svg",
                    "id": 2284
                  },
                  "image_size": "medium",
                  "width_mobile": {
                    "unit": "%",
                    "size": 34,
                    "sizes": []
                  },
                  "width": {
                    "unit": "%",
                    "size": 17,
                    "sizes": []
                  }
                },
                "elements": [],
                "isInner": false,
                "widgetType": "image",
                "elType": "widget"
              },
              {
                "id": "9ee4cb8",
                "settings": {
                  "editor": "<p>The Intimate Wedding of</p>\n<p><b>Latasya &amp; Ilyas</b></p>",
                  "align": "center",
                  "text_color": "#B99225",
                  "typography_typography": "custom",
                  "typography_font_family": "Poppins",
                  "typography_font_size": {
                    "unit": "px",
                    "size": 18,
                    "sizes": []
                  },
                  "typography_font_weight": "400",
                  "typography_font_size_mobile": {
                    "unit": "px",
                    "size": 17,
                    "sizes": []
                  }
                },
                "elements": [],
                "isInner": false,
                "widgetType": "text-editor",
                "elType": "widget"
              },
              {
                "id": "6443597f",
                "settings": {
                  "label_days": "Days",
                  "label_hours": "Hours",
                  "label_minutes": "Minutes",
                  "label_seconds": "Seconds",
                  "container_width": {
                    "unit": "%",
                    "size": 47,
                    "sizes": []
                  },
                  "container_width_mobile": {
                    "unit": "%",
                    "size": 95,
                    "sizes": []
                  },
                  "box_background_color": "#B99225",
                  "box_border_radius": {
                    "unit": "px",
                    "top": "24",
                    "right": "24",
                    "bottom": "24",
                    "left": "24",
                    "isLinked": true
                  },
                  "digits_typography_typography": "custom",
                  "digits_typography_font_family": "Roboto",
                  "digits_typography_font_size": {
                    "unit": "px",
                    "size": 48,
                    "sizes": []
                  },
                  "digits_typography_font_size_mobile": {
                    "unit": "px",
                    "size": 36,
                    "sizes": []
                  },
                  "digits_typography_font_weight": "400",
                  "label_typography_typography": "custom",
                  "label_typography_font_family": "Roboto Slab",
                  "label_typography_font_size": {
                    "unit": "px",
                    "size": 16,
                    "sizes": []
                  },
                  "label_typography_font_size_mobile": {
                    "unit": "px",
                    "size": 13,
                    "sizes": []
                  },
                  "label_typography_font_weight": "400",
                  "_offset_x": {
                    "size": -1,
                    "unit": "px"
                  },
                  "_offset_orientation_v": "end",
                  "_offset_y_end": {
                    "size": 80,
                    "unit": "px"
                  },
                  "box_spacing": {
                    "unit": "px",
                    "size": 9,
                    "sizes": []
                  },
                  "_animation": "fadeIn",
                  "due_date": "2021-02-12 10:00"
                },
                "elements": [],
                "isInner": false,
                "widgetType": "countdown",
                "elType": "widget"
              }
            ],
            "isInner": false,
            "elType": "column"
          }
        ],
        "isInner": false,
        "elType": "section"
      },
      {
        "id": "af10d3a",
        "settings": {
          "layout": "full_width",
          "structure": "20",
          "background_background": "classic",
          "background_color": "#6A795C00"
        },
        "elements": [
          {
            "id": "4dba471",
            "settings": {
              "_column_size": 50,
              "_inline_size": null,
              "space_between_widgets": 0,
              "background_background": "classic",
              "background_color": "#FFFFFF",
              "border_radius": {
                "unit": "px",
                "top": "25",
                "right": "25",
                "bottom": "25",
                "left": "25",
                "isLinked": true
              },
              "margin": {
                "unit": "px",
                "top": "50",
                "right": "50",
                "bottom": "50",
                "left": "50",
                "isLinked": true
              },
              "padding": {
                "unit": "px",
                "top": "20",
                "right": "20",
                "bottom": "20",
                "left": "20",
                "isLinked": true
              },
              "margin_mobile": {
                "unit": "px",
                "top": "40",
                "right": "25",
                "bottom": "0",
                "left": "25",
                "isLinked": false
              }
            },
            "elements": [
              {
                "id": "23db07cf",
                "settings": {
                  "image": {
                    "url": "https://my.possiblewedding.com/wp-content/uploads/2021/01/ce-21.jpg",
                    "id": 2525
                  },
                  "image_size": "medium",
                  "width": {
                    "unit": "%",
                    "size": 50,
                    "sizes": []
                  },
                  "image_border_radius": {
                    "unit": "px",
                    "top": "15",
                    "right": "15",
                    "bottom": "15",
                    "left": "15",
                    "isLinked": true
                  },
                  "width_mobile": {
                    "unit": "%",
                    "size": 95,
                    "sizes": []
                  }
                },
                "elements": [],
                "isInner": false,
                "widgetType": "image",
                "elType": "widget"
              },
              {
                "id": "550f35c4",
                "settings": {
                  "editor": "<p>Latasya</p>",
                  "align": "center",
                  "text_color": "#B99225",
                  "typography_typography": "custom",
                  "typography_font_family": "Alex Brush",
                  "typography_font_size": {
                    "unit": "px",
                    "size": 72,
                    "sizes": []
                  },
                  "typography_font_weight": "400",
                  "custom_css": "selector{\n    line-height: 1;\n    padding-top: 25px\n}",
                  "typography_font_size_mobile": {
                    "unit": "px",
                    "size": 67,
                    "sizes": []
                  }
                },
                "elements": [],
                "isInner": false,
                "widgetType": "text-editor",
                "elType": "widget"
              },
              {
                "id": "71b9a91b",
                "settings": {
                  "editor": "<p><b>Latasya Muthianisa</b></p>",
                  "align": "center",
                  "text_color": "#B99225",
                  "typography_typography": "custom",
                  "typography_font_family": "Tinos",
                  "typography_font_weight": "400",
                  "typography_font_size_mobile": {
                    "unit": "px",
                    "size": 17,
                    "sizes": []
                  },
                  "_margin_mobile": {
                    "unit": "px",
                    "top": "21",
                    "right": "0",
                    "bottom": "0",
                    "left": "0",
                    "isLinked": false
                  }
                },
                "elements": [],
                "isInner": false,
                "widgetType": "text-editor",
                "elType": "widget"
              },
              {
                "id": "70c9e737",
                "settings": {
                  "editor": "<p><b>Putri dari: </b></p><p>Bpk Mukharto Mislim</p><p>dan</p><p>Ibu Slamet Mujiati</p>",
                  "align": "center",
                  "typography_typography": "custom",
                  "typography_font_family": "Poppins",
                  "typography_font_size": {
                    "unit": "px",
                    "size": 16,
                    "sizes": []
                  },
                  "typography_font_weight": "400"
                },
                "elements": [],
                "isInner": false,
                "widgetType": "text-editor",
                "elType": "widget"
              },
              {
                "id": "675bf10f",
                "settings": {
                  "social_icon_list": [
                    {
                      "social_icon": {
                        "value": "fab fa-instagram",
                        "library": "fa-brands"
                      },
                      "_id": "79b23ae",
                      "link": {
                        "url": "https://instagram.com/latasyaanisaaa",
                        "is_external": "true",
                        "nofollow": "",
                        "custom_attributes": ""
                      }
                    }
                  ],
                  "icon_color": "custom",
                  "icon_primary_color": "#B99225",
                  "icon_size": {
                    "unit": "px",
                    "size": 24,
                    "sizes": []
                  },
                  "icon_size_mobile": {
                    "unit": "px",
                    "size": 14,
                    "sizes": []
                  },
                  "border_radius": {
                    "unit": "px",
                    "top": "27",
                    "right": "27",
                    "bottom": "27",
                    "left": "27",
                    "isLinked": true
                  }
                },
                "elements": [],
                "isInner": false,
                "widgetType": "social-icons",
                "elType": "widget"
              }
            ],
            "isInner": false,
            "elType": "column"
          },
          {
            "id": "63f36523",
            "settings": {
              "_column_size": 50,
              "_inline_size": null,
              "space_between_widgets": 0,
              "background_background": "classic",
              "background_color": "#FFFFFF",
              "border_radius": {
                "unit": "px",
                "top": "25",
                "right": "25",
                "bottom": "25",
                "left": "25",
                "isLinked": true
              },
              "margin": {
                "unit": "px",
                "top": "50",
                "right": "50",
                "bottom": "50",
                "left": "50",
                "isLinked": true
              },
              "padding": {
                "unit": "px",
                "top": "20",
                "right": "20",
                "bottom": "20",
                "left": "20",
                "isLinked": true
              },
              "margin_mobile": {
                "unit": "px",
                "top": "46",
                "right": "25",
                "bottom": "59",
                "left": "25",
                "isLinked": false
              }
            },
            "elements": [
              {
                "id": "40b185d3",
                "settings": {
                  "image": {
                    "url": "https://my.possiblewedding.com/wp-content/uploads/2021/01/copipit.png",
                    "id": 2526
                  },
                  "image_size": "medium",
                  "width": {
                    "unit": "%",
                    "size": 50,
                    "sizes": []
                  },
                  "image_border_radius": {
                    "unit": "px",
                    "top": "15",
                    "right": "15",
                    "bottom": "15",
                    "left": "15",
                    "isLinked": true
                  },
                  "width_mobile": {
                    "unit": "%",
                    "size": 95,
                    "sizes": []
                  }
                },
                "elements": [],
                "isInner": false,
                "widgetType": "image",
                "elType": "widget"
              },
              {
                "id": "3199babd",
                "settings": {
                  "editor": "<p>Ilyas</p>",
                  "align": "center",
                  "text_color": "#B99225",
                  "typography_typography": "custom",
                  "typography_font_family": "Alex Brush",
                  "typography_font_size": {
                    "unit": "px",
                    "size": 72,
                    "sizes": []
                  },
                  "typography_font_weight": "400",
                  "custom_css": "selector{\n    line-height: 1;\n    padding-top: 25px\n}",
                  "typography_font_size_mobile": {
                    "unit": "px",
                    "size": 67,
                    "sizes": []
                  }
                },
                "elements": [],
                "isInner": false,
                "widgetType": "text-editor",
                "elType": "widget"
              },
              {
                "id": "220b9429",
                "settings": {
                  "editor": "<p><b>Rizki Nurilyas Ahmad</b></p>",
                  "align": "center",
                  "text_color": "#B99225",
                  "typography_typography": "custom",
                  "typography_font_family": "Tinos",
                  "typography_font_weight": "400",
                  "typography_font_size_mobile": {
                    "unit": "px",
                    "size": 17,
                    "sizes": []
                  },
                  "_margin_mobile": {
                    "unit": "px",
                    "top": "21",
                    "right": "0",
                    "bottom": "0",
                    "left": "0",
                    "isLinked": false
                  }
                },
                "elements": [],
                "isInner": false,
                "widgetType": "text-editor",
                "elType": "widget"
              },
              {
                "id": "62df9c82",
                "settings": {
                  "editor": "<p><b>Putra dari: </b></p><p>Bpk Sukirno</p><p>dan</p><p>Ibu Yuli Karyanti</p>",
                  "align": "center",
                  "typography_typography": "custom",
                  "typography_font_family": "Poppins",
                  "typography_font_size": {
                    "unit": "px",
                    "size": 16,
                    "sizes": []
                  },
                  "typography_font_weight": "400"
                },
                "elements": [],
                "isInner": false,
                "widgetType": "text-editor",
                "elType": "widget"
              },
              {
                "id": "7d9c0980",
                "settings": {
                  "social_icon_list": [
                    {
                      "social_icon": {
                        "value": "fab fa-instagram",
                        "library": "fa-brands"
                      },
                      "_id": "79b23ae",
                      "link": {
                        "url": "instagram.com/nurilyas27",
                        "is_external": "true",
                        "nofollow": "",
                        "custom_attributes": ""
                      }
                    }
                  ],
                  "icon_color": "custom",
                  "icon_primary_color": "#B99225",
                  "icon_size": {
                    "unit": "px",
                    "size": 24,
                    "sizes": []
                  },
                  "icon_size_mobile": {
                    "unit": "px",
                    "size": 14,
                    "sizes": []
                  },
                  "border_radius": {
                    "unit": "px",
                    "top": "27",
                    "right": "27",
                    "bottom": "27",
                    "left": "27",
                    "isLinked": true
                  }
                },
                "elements": [],
                "isInner": false,
                "widgetType": "social-icons",
                "elType": "widget"
              }
            ],
            "isInner": false,
            "elType": "column"
          }
        ],
        "isInner": false,
        "elType": "section"
      },
      {
        "id": "2fd4b1c9",
        "settings": {
          "layout": "full_width",
          "padding_mobile": {
            "unit": "px",
            "top": "0",
            "right": "0",
            "bottom": "0",
            "left": "0",
            "isLinked": true
          }
        },
        "elements": [
          {
            "id": "199293d0",
            "settings": {
              "_column_size": 100,
              "_inline_size": null,
              "margin": {
                "unit": "px",
                "top": "30",
                "right": "30",
                "bottom": "30",
                "left": "30",
                "isLinked": true
              },
              "_inline_size_mobile": 100,
              "margin_mobile": {
                "unit": "px",
                "top": "0",
                "right": "0",
                "bottom": "0",
                "left": "0",
                "isLinked": true
              },
              "padding_mobile": {
                "unit": "px",
                "top": "0",
                "right": "0",
                "bottom": "0",
                "left": "0",
                "isLinked": true
              }
            },
            "elements": [
              {
                "id": "7c8c94df",
                "settings": {
                  "editor": "<p>Yang Insyaallah akan dilaksanakan:</p>",
                  "align": "center",
                  "text_color": "#69785B",
                  "typography_typography": "custom",
                  "typography_font_family": "Poppins",
                  "typography_font_size": {
                    "unit": "px",
                    "size": 18,
                    "sizes": []
                  },
                  "typography_font_weight": "400",
                  "typography_font_size_mobile": {
                    "unit": "px",
                    "size": 16,
                    "sizes": []
                  }
                },
                "elements": [],
                "isInner": false,
                "widgetType": "text-editor",
                "elType": "widget"
              },
              {
                "id": "4d99a8cd",
                "settings": {
                  "layout": "full_width",
                  "padding_mobile": {
                    "unit": "px",
                    "top": "0",
                    "right": "0",
                    "bottom": "0",
                    "left": "0",
                    "isLinked": true
                  }
                },
                "elements": [
                  {
                    "id": "30a8639a",
                    "settings": {
                      "_column_size": 100,
                      "_inline_size": null,
                      "margin_mobile": {
                        "unit": "px",
                        "top": "0",
                        "right": "0",
                        "bottom": "0",
                        "left": "0",
                        "isLinked": false
                      },
                      "_inline_size_mobile": 100,
                      "padding_mobile": {
                        "unit": "px",
                        "top": "0",
                        "right": "0",
                        "bottom": "0",
                        "left": "0",
                        "isLinked": true
                      }
                    },
                    "elements": [
                      {
                        "id": "3657b83",
                        "settings": {
                          "editor": "<p>Akad Nikah </p>",
                          "align": "center",
                          "text_color": "#B99225",
                          "typography_typography": "custom",
                          "typography_font_family": "Alex Brush",
                          "typography_font_size": {
                            "unit": "px",
                            "size": 72,
                            "sizes": []
                          },
                          "typography_font_weight": "400",
                          "custom_css": "selector{\n    line-height: 1;\n    padding-top: 25px\n}",
                          "typography_font_size_mobile": {
                            "unit": "px",
                            "size": 67,
                            "sizes": []
                          }
                        },
                        "elements": [],
                        "isInner": false,
                        "widgetType": "text-editor",
                        "elType": "widget"
                      },
                      {
                        "id": "3c995177",
                        "settings": {
                          "editor": "<p><b>Jumat, 12 Februari 2021</b></p>",
                          "align": "center",
                          "text_color": "#B99225",
                          "typography_typography": "custom",
                          "typography_font_family": "Poppins",
                          "typography_font_size": {
                            "unit": "px",
                            "size": 18,
                            "sizes": []
                          },
                          "typography_font_weight": "400"
                        },
                        "elements": [],
                        "isInner": false,
                        "widgetType": "text-editor",
                        "elType": "widget"
                      },
                      {
                        "id": "1a591175",
                        "settings": {
                          "editor": "<p>10.00 WIB - Selesai</p>",
                          "align": "center",
                          "text_color": "#69785B",
                          "typography_typography": "custom",
                          "typography_font_family": "Poppins",
                          "typography_font_size": {
                            "unit": "px",
                            "size": 18,
                            "sizes": []
                          },
                          "typography_font_weight": "400",
                          "typography_font_size_mobile": {
                            "unit": "px",
                            "size": 16,
                            "sizes": []
                          }
                        },
                        "elements": [],
                        "isInner": false,
                        "widgetType": "text-editor",
                        "elType": "widget"
                      },
                      {
                        "id": "1170240b",
                        "settings": {
                          "editor": "<p><b>Table Nine Kitchen Resto</b></p><p>Jl. Profesor DR. HR Bunyamin, Kelurahan Pabuaran, Kecamatan Purwokerto Utara, Kabupaten Banyumas, Jawa Tengah 53124</p>",
                          "align": "center",
                          "text_color": "#B99225",
                          "typography_typography": "custom",
                          "typography_font_family": "Poppins",
                          "typography_font_size": {
                            "unit": "px",
                            "size": 18,
                            "sizes": []
                          },
                          "typography_font_weight": "400"
                        },
                        "elements": [],
                        "isInner": false,
                        "widgetType": "text-editor",
                        "elType": "widget"
                      },
                      {
                        "id": "70488eef",
                        "settings": {
                          "address": "Table Nine Kitchen Resto Jl. Profesor DR. HR Bunyamin, Kelurahan Pabuaran, Kecamatan Purwokerto Utara, Kabupaten Banyumas, Jawa Tengah 53124",
                          "zoom": {
                            "unit": "px",
                            "size": 12,
                            "sizes": []
                          },
                          "height": {
                            "unit": "px",
                            "size": 411,
                            "sizes": []
                          }
                        },
                        "elements": [],
                        "isInner": false,
                        "widgetType": "google_maps",
                        "elType": "widget"
                      }
                    ],
                    "isInner": true,
                    "elType": "column"
                  }
                ],
                "isInner": true,
                "elType": "section"
              },
              {
                "id": "d8d08b0",
                "settings": {
                  "margin": {
                    "unit": "px",
                    "top": "30",
                    "right": 0,
                    "bottom": "30",
                    "left": 0,
                    "isLinked": true
                  }
                },
                "elements": [
                  {
                    "id": "2b0cf53b",
                    "settings": {
                      "_column_size": 100,
                      "_inline_size": null,
                      "margin": {
                        "unit": "px",
                        "top": "0",
                        "right": "0",
                        "bottom": "0",
                        "left": "0",
                        "isLinked": false
                      },
                      "_inline_size_mobile": 100
                    },
                    "elements": [
                      {
                        "id": "629f6b78",
                        "settings": {
                          "text": "<b>Get Direction</b>",
                          "align": "center",
                          "typography_typography": "custom",
                          "typography_font_family": "Poppins",
                          "typography_font_weight": "400",
                          "button_text_color": "#B99225",
                          "background_color": "#69785B00",
                          "border_radius": {
                            "unit": "px",
                            "top": "20",
                            "right": "20",
                            "bottom": "20",
                            "left": "20",
                            "isLinked": true
                          },
                          "text_padding": {
                            "unit": "px",
                            "top": "20",
                            "right": "50",
                            "bottom": "20",
                            "left": "50",
                            "isLinked": false
                          },
                          "link": {
                            "url": "https://www.google.com/maps/place/Table+Nine+Resto/@-7.3952493,109.2431019,17z/data=!3m1!4b1!4m5!3m4!1s0x5106a8a8c8fb12f:0xddc3100cf43acc88!8m2!3d-7.3952493!4d109.2452906",
                            "is_external": "on",
                            "nofollow": "",
                            "custom_attributes": ""
                          },
                          "typography_font_size": {
                            "unit": "px",
                            "size": 16,
                            "sizes": []
                          },
                          "_margin_mobile": {
                            "unit": "px",
                            "top": "0",
                            "right": "0",
                            "bottom": "0",
                            "left": "0",
                            "isLinked": true
                          },
                          "selected_icon": {
                            "value": "fas fa-map-marked-alt",
                            "library": "fa-solid"
                          },
                          "icon_indent": {
                            "unit": "px",
                            "size": 12,
                            "sizes": []
                          },
                          "text_shadow_text_shadow_type": "yes",
                          "border_border": "solid"
                        },
                        "elements": [],
                        "isInner": false,
                        "widgetType": "button",
                        "elType": "widget"
                      },
                      {
                        "id": "53febf45",
                        "settings": {
                          "text": "<b>Add to Calendar</b>",
                          "align": "center",
                          "typography_typography": "custom",
                          "typography_font_family": "Poppins",
                          "typography_font_weight": "400",
                          "button_text_color": "#B99225",
                          "background_color": "#69785B00",
                          "border_radius": {
                            "unit": "px",
                            "top": "20",
                            "right": "20",
                            "bottom": "20",
                            "left": "20",
                            "isLinked": true
                          },
                          "text_padding": {
                            "unit": "px",
                            "top": "20",
                            "right": "50",
                            "bottom": "20",
                            "left": "50",
                            "isLinked": false
                          },
                          "link": {
                            "url": "http://www.google.com/calendar/event?action=TEMPLATE&dates=20210212T100000Z%2F20210212T010000Z&text=Pernikahan%20Latasya%20%26%20Ilyas&location=&details=",
                            "is_external": "on",
                            "nofollow": "",
                            "custom_attributes": ""
                          },
                          "typography_font_size": {
                            "unit": "px",
                            "size": 16,
                            "sizes": []
                          },
                          "_margin_mobile": {
                            "unit": "px",
                            "top": "0",
                            "right": "0",
                            "bottom": "0",
                            "left": "0",
                            "isLinked": true
                          },
                          "selected_icon": {
                            "value": "far fa-calendar-alt",
                            "library": "fa-regular"
                          },
                          "icon_indent": {
                            "unit": "px",
                            "size": 12,
                            "sizes": []
                          },
                          "text_shadow_text_shadow_type": "yes",
                          "border_border": "solid"
                        },
                        "elements": [],
                        "isInner": false,
                        "widgetType": "button",
                        "elType": "widget"
                      }
                    ],
                    "isInner": true,
                    "elType": "column"
                  }
                ],
                "isInner": true,
                "elType": "section"
              },
              {
                "id": "9627de9",
                "settings": {
                  "image": {
                    "url": "https://my.possiblewedding.com/wp-content/uploads/2021/01/covid-gold.svg",
                    "id": 2285
                  },
                  "width": {
                    "unit": "%",
                    "size": 50,
                    "sizes": []
                  },
                  "width_mobile": {
                    "unit": "%",
                    "size": 90,
                    "sizes": []
                  }
                },
                "elements": [],
                "isInner": false,
                "widgetType": "image",
                "elType": "widget"
              },
              {
                "id": "4afae30e",
                "settings": {
                  "content_width": {
                    "unit": "px",
                    "size": 500,
                    "sizes": []
                  },
                  "border_border": "solid",
                  "border_color": "#B9922500",
                  "border_radius": {
                    "unit": "px",
                    "top": "20",
                    "right": "20",
                    "bottom": "20",
                    "left": "20",
                    "isLinked": true
                  },
                  "padding": {
                    "unit": "px",
                    "top": "10",
                    "right": "10",
                    "bottom": "10",
                    "left": "10",
                    "isLinked": true
                  }
                },
                "elements": [
                  {
                    "id": "c83502e",
                    "settings": {
                      "_column_size": 100,
                      "_inline_size": null,
                      "border_border": "solid",
                      "border_color": "#B99225",
                      "border_radius": {
                        "unit": "px",
                        "top": "30",
                        "right": "30",
                        "bottom": "30",
                        "left": "30",
                        "isLinked": true
                      }
                    },
                    "elements": [
                      {
                        "id": "4293492a",
                        "settings": {
                          "editor": "<p>tanpa mengurangi rasa hormat, bagi Anda yang ingin memberikan tanda kasih untuk pengantin, dapat melalui :</p>",
                          "align": "center",
                          "text_color": "#69785B",
                          "typography_typography": "custom",
                          "typography_font_family": "Poppins",
                          "typography_font_size": {
                            "unit": "px",
                            "size": 18,
                            "sizes": []
                          },
                          "typography_font_size_mobile": {
                            "unit": "px",
                            "size": 16,
                            "sizes": []
                          },
                          "typography_font_weight": "400"
                        },
                        "elements": [],
                        "isInner": false,
                        "widgetType": "text-editor",
                        "elType": "widget"
                      },
                      {
                        "id": "524014db",
                        "settings": {
                          "text": "<b>Send Gift</b>",
                          "align": "center",
                          "typography_typography": "custom",
                          "typography_font_family": "Poppins",
                          "typography_font_weight": "400",
                          "button_text_color": "#B99225",
                          "background_color": "#69785B00",
                          "border_radius": {
                            "unit": "px",
                            "top": "20",
                            "right": "20",
                            "bottom": "20",
                            "left": "20",
                            "isLinked": true
                          },
                          "text_padding": {
                            "unit": "px",
                            "top": "20",
                            "right": "50",
                            "bottom": "20",
                            "left": "50",
                            "isLinked": false
                          },
                          "link": {
                            "url": "",
                            "is_external": "on",
                            "nofollow": "",
                            "custom_attributes": ""
                          },
                          "typography_font_size": {
                            "unit": "px",
                            "size": 16,
                            "sizes": []
                          },
                          "_margin_mobile": {
                            "unit": "px",
                            "top": "0",
                            "right": "0",
                            "bottom": "30",
                            "left": "0",
                            "isLinked": false
                          },
                          "selected_icon": {
                            "value": "fas fa-gift",
                            "library": "fa-solid"
                          },
                          "icon_indent": {
                            "unit": "px",
                            "size": 12,
                            "sizes": []
                          },
                          "button_css_id": "button-gift",
                          "text_shadow_text_shadow_type": "yes",
                          "border_border": "solid"
                        },
                        "elements": [],
                        "isInner": false,
                        "widgetType": "button",
                        "elType": "widget"
                      },
                      {
                        "id": "3bdb218d",
                        "settings": {
                          "html": "<script>\n    document.getElementById(\"button-gift\").onclick=function(){\n        document.getElementById(\"wedding-gift\").style.display=\"block\"\n    }\n</script>"
                        },
                        "elements": [],
                        "isInner": false,
                        "widgetType": "html",
                        "elType": "widget"
                      }
                    ],
                    "isInner": true,
                    "elType": "column"
                  }
                ],
                "isInner": true,
                "elType": "section"
              }
            ],
            "isInner": false,
            "elType": "column"
          }
        ],
        "isInner": false,
        "elType": "section"
      },
      {
        "id": "2e065543",
        "settings": {
          "_element_id": "wedding-gift",
          "custom_css": "#wedding-gift{\n    display: none\n}"
        },
        "elements": [
          {
            "id": "68b660fa",
            "settings": {
              "_column_size": 100,
              "_inline_size": null,
              "background_background": "classic",
              "background_color": "#B99225",
              "border_radius": {
                "unit": "px",
                "top": "30",
                "right": "30",
                "bottom": "30",
                "left": "30",
                "isLinked": true
              },
              "margin_mobile": {
                "unit": "px",
                "top": "10",
                "right": "10",
                "bottom": "10",
                "left": "10",
                "isLinked": true
              }
            },
            "elements": [
              {
                "id": "9d068c8",
                "settings": {
                  "editor": "<p>Wedding Gift</p>",
                  "align": "center",
                  "text_color": "#FFFFFF",
                  "typography_typography": "custom",
                  "typography_font_family": "Alex Brush",
                  "typography_font_size": {
                    "unit": "px",
                    "size": 72,
                    "sizes": []
                  },
                  "typography_font_weight": "400",
                  "custom_css": "selector{\n    line-height: 1;\n    padding-top: 25px\n}",
                  "typography_font_size_mobile": {
                    "unit": "px",
                    "size": 48,
                    "sizes": []
                  }
                },
                "elements": [],
                "isInner": false,
                "widgetType": "text-editor",
                "elType": "widget"
              },
              {
                "id": "5d6065f6",
                "settings": {
                  "editor": "<p><b>BNI-0394537738 </b></p><p><b>a.n.Rizki Nurilyas Ahmad</b></p>",
                  "align": "center",
                  "text_color": "#FFFFFF",
                  "typography_typography": "custom",
                  "typography_font_family": "Poppins",
                  "typography_font_size": {
                    "unit": "px",
                    "size": 18,
                    "sizes": []
                  },
                  "typography_font_weight": "400"
                },
                "elements": [],
                "isInner": false,
                "widgetType": "text-editor",
                "elType": "widget"
              },
              {
                "id": "71a8121c",
                "settings": {
                  "text": "<b>Salin No Rekening</b>",
                  "align": "center",
                  "typography_typography": "custom",
                  "typography_font_family": "Poppins",
                  "typography_font_weight": "400",
                  "button_text_color": "#B99225",
                  "background_color": "#FFFFFFFA",
                  "border_radius": {
                    "unit": "px",
                    "top": "20",
                    "right": "20",
                    "bottom": "20",
                    "left": "20",
                    "isLinked": true
                  },
                  "text_padding": {
                    "unit": "px",
                    "top": "20",
                    "right": "50",
                    "bottom": "20",
                    "left": "50",
                    "isLinked": false
                  },
                  "link": {
                    "url": "",
                    "is_external": "on",
                    "nofollow": "",
                    "custom_attributes": ""
                  },
                  "typography_font_size": {
                    "unit": "px",
                    "size": 16,
                    "sizes": []
                  },
                  "_margin_mobile": {
                    "unit": "px",
                    "top": "0",
                    "right": "0",
                    "bottom": "0",
                    "left": "0",
                    "isLinked": true
                  },
                  "selected_icon": {
                    "value": "far fa-copy",
                    "library": "fa-regular"
                  },
                  "icon_indent": {
                    "unit": "px",
                    "size": 12,
                    "sizes": []
                  },
                  "button_css_id": "copy1",
                  "text_shadow_text_shadow_type": "yes",
                  "border_border": "solid",
                  "border_color": "#FFFFFF"
                },
                "elements": [],
                "isInner": false,
                "widgetType": "button",
                "elType": "widget"
              },
              
              {
                "id": "5ee22814",
                "settings": {
                  "editor": "<p><b>Alamat Pengiriman Kado</b></p><p>Jl. Jati Murni No.12, RT.004/RW.02, Kel. Jati Padang, Kec. Ps. Minggu, Kota Jakarta Selatan, Daerah Khusus Ibukota Jakarta 12540</p>",
                  "align": "center",
                  "text_color": "#FFFFFF",
                  "typography_typography": "custom",
                  "typography_font_family": "Poppins",
                  "typography_font_size": {
                    "unit": "px",
                    "size": 18,
                    "sizes": []
                  },
                  "typography_font_weight": "400"
                },
                "elements": [],
                "isInner": false,
                "widgetType": "text-editor",
                "elType": "widget"
              },
              {
                "id": "53f0833f",
                "settings": {
                  "html": "<script>\n    \nfunction copyToClipboard(text) {\n    var dummy = document.createElement(\"textarea\");\n    // to avoid breaking orgain page when copying more words\n    // cant copy when adding below this code\n    // dummy.style.display = 'none'\n    document.body.appendChild(dummy);\n    //Be careful if you use texarea. setAttribute('value', value), which works with \"input\" does not work with \"textarea\". – Eduard\n    dummy.value = text;\n    dummy.select();\n    document.execCommand(\"copy\");\n    document.body.removeChild(dummy);\n}\n\ndocument.getElementById(\"copy1\").onclick=function(){\n    copyToClipboard('0394537738')\n    \n}\n</script>"
                },
                "elements": [],
                "isInner": false,
                "widgetType": "html",
                "elType": "widget"
              }
            ],
            "isInner": false,
            "elType": "column"
          }
        ],
        "isInner": false,
        "elType": "section"
      },
      {
        "id": "71d1890f",
        "settings": {
          "layout": "full_width",
          "gap": "no",
          "stretch_section": "section-stretched",
          "shape_divider_top_color": "#E1D8C4",
          "shape_divider_top_height": {
            "unit": "px",
            "size": 50,
            "sizes": []
          },
          "shape_divider_top_negative": "yes",
          "shape_divider_top_above_content": "yes",
          "shape_divider_bottom_color": "#201E1E",
          "shape_divider_bottom_height": {
            "unit": "px",
            "size": 50,
            "sizes": []
          },
          "shape_divider_bottom_negative": "yes",
          "shape_divider_bottom_above_content": "yes",
          "z_index": 0
        },
        "elements": [
          {
            "id": "119cba4c",
            "settings": {
              "_column_size": 100,
              "_inline_size": null,
              "background_background": "classic",
              "background_color": "#B99225",
              "border_radius": {
                "unit": "px",
                "top": "0",
                "right": "0",
                "bottom": "0",
                "left": "0",
                "isLinked": true
              },
              "padding": {
                "unit": "px",
                "top": "25",
                "right": "25",
                "bottom": "25",
                "left": "25",
                "isLinked": true
              },
              "animation": "fadeInUp",
              "border_radius_mobile": {
                "unit": "px",
                "top": "15",
                "right": "15",
                "bottom": "15",
                "left": "15",
                "isLinked": true
              },
              "margin_mobile": {
                "unit": "px",
                "top": "10",
                "right": "10",
                "bottom": "10",
                "left": "10",
                "isLinked": true
              }
            },
            
            "isInner": false,
            "elType": "column"
          }
        ],
        "isInner": false,
        "elType": "section"
      },
      {
        "id": "45c49487",
        "settings": {
          "shape_divider_bottom_color": "#D0B577",
          "shape_divider_bottom_width": {
            "unit": "%",
            "size": 100,
            "sizes": []
          },
          "padding": {
            "unit": "px",
            "top": "0",
            "right": "0",
            "bottom": "70",
            "left": "0",
            "isLinked": false
          },
          "padding_mobile": {
            "unit": "px",
            "top": "50",
            "right": "0",
            "bottom": "0",
            "left": "0",
            "isLinked": false
          },
          "background_background": "classic",
          "background_color": "#69785B00"
        },
        "elements": [
          {
            "id": "24cec719",
            "settings": {
              "_column_size": 100,
              "_inline_size": null,
              "padding": {
                "unit": "px",
                "top": "100",
                "right": "50",
                "bottom": "100",
                "left": "50",
                "isLinked": false
              },
              "padding_mobile": {
                "unit": "px",
                "top": "10",
                "right": "10",
                "bottom": "10",
                "left": "10",
                "isLinked": true
              }
            },
            "elements": [
              {
                "id": "4dcb9474",
                "settings": {
                  "structure": "20"
                },
                "elements": [
                  {
                    "id": "174fb003",
                    "settings": {
                      "_column_size": 50,
                      "_inline_size": null,
                      "content_position": "center",
                      "space_between_widgets": 0,
                      "html_tag": "div",
                      "background_background": "classic",
                      "background_color": "#FFFFFF",
                      "border_radius": {
                        "unit": "px",
                        "top": "25",
                        "right": "25",
                        "bottom": "25",
                        "left": "25",
                        "isLinked": true
                      },
                      "box_shadow_box_shadow_type": "yes",
                      "custom_css": "\n",
                      "margin_mobile": {
                        "unit": "px",
                        "top": "10",
                        "right": "10",
                        "bottom": "10",
                        "left": "10",
                        "isLinked": true
                      },
                      "padding_mobile": {
                        "unit": "px",
                        "top": "72",
                        "right": "10",
                        "bottom": "020",
                        "left": "10",
                        "isLinked": false
                      },
                      "z_index_mobile": 0,
                      "padding": {
                        "unit": "px",
                        "top": "30",
                        "right": "30",
                        "bottom": "30",
                        "left": "30",
                        "isLinked": true
                      },
                      "animation": "fadeInUp"
                    },
                    "elements": [
                      {
                        "id": "7fca2658",
                        "settings": {
                          "editor": "<p><b>Send Your Wish</b></p>",
                          "align": "center",
                          "typography_typography": "custom",
                          "typography_font_family": "Alex Brush",
                          "typography_font_size": {
                            "unit": "px",
                            "size": 72,
                            "sizes": []
                          },
                          "typography_font_weight": "400",
                          "custom_css": "selector{\n    line-height: 1;\n    padding-top: 25px\n}",
                          "text_color": "#B99225",
                          "typography_font_size_mobile": {
                            "unit": "px",
                            "size": 48,
                            "sizes": []
                          }
                        },
                        "elements": [],
                        "isInner": false,
                        "widgetType": "text-editor",
                        "elType": "widget"
                      },
                      {
                        "id": "38bbeedc",
                        "settings": {
                          "form_name": "New Form",
                          "form_fields": [
                            {
                              "custom_id": "name",
                              "field_label": "Name",
                              "placeholder": "Name",
                              "_id": "b1b63c9",
                              "required": "true"
                            },
                            {
                              "custom_id": "message",
                              "field_type": "textarea",
                              "field_label": "Message",
                              "placeholder": "Message",
                              "_id": "31e0fc0",
                              "required": "true"
                            },
                            {
                              "_id": "b66cf1e",
                              "field_type": "radio",
                              "field_label": "Kehadiran",
                              "field_options": "Hadir\nTidak Hadir",
                              "inline_list": "elementor-subgroup-inline",
                              "custom_id": "field_b66cf1e"
                            },
                            {
                              "_id": "da9e4be",
                              "field_type": "select",
                              "field_label": "Yang akan Hadir",
                              "field_options": "0\n1\n2",
                              "custom_id": "field_da9e4be"
                            }
                          ],
                          "step_next_label": "Next",
                          "step_previous_label": "Previous",
                          "button_text": "Send",
                          "email_content": "[all-fields]",
                          "email_content_2": "[all-fields]",
                          "success_message": "The form was sent successfully.",
                          "error_message": "An error occurred.",
                          "required_field_message": "This field is required.",
                          "invalid_message": "There's something wrong. The form is invalid.",
                          "label_typography_typography": "custom",
                          "label_typography_font_family": "Roboto",
                          "label_typography_font_size": {
                            "unit": "px",
                            "size": 16,
                            "sizes": []
                          },
                          "label_typography_font_weight": "400",
                          "field_border_radius": {
                            "unit": "px",
                            "top": "20",
                            "right": "20",
                            "bottom": "20",
                            "left": "20",
                            "isLinked": true
                          },
                          "button_background_color": "#B99225",
                          "button_text_color": "#FFFFFF",
                          "previous_button_background_color": "#D0B577",
                          "button_border_radius": {
                            "unit": "px",
                            "top": "30",
                            "right": "30",
                            "bottom": "30",
                            "left": "30",
                            "isLinked": true
                          },
                          "mark_required": "yes",
                          "submit_actions": [],
                          "webhooks_advanced_data": "",
                          "custom_messages": "yes",
                          "button_css_id": "submith",
                          "form_id": "myForm"
                        },
                        "elements": [],
                        "isInner": false,
                        "widgetType": "form",
                        "elType": "widget"
                      },
                      {
                        "id": "6b76d442",
                        "settings": {
                          "html": "<script>\ndocument.getElementById(\"myForm\").onsubmit = function(e) {\n    const form = new FormData(e.target);\n    \n    const nama = form.get(\"form_fields[name]\");\n     const message = form.get(\"form_fields[message]\");\n    const hadir= form.get(\"form_fields[field_b66cf1e]\");\n    const jumlahhadir=form.get(\"form_fields[field_da9e4be]\");\n    postData('https://undangan-api.vercel.app/api/postdata', { kepada:\"latasya-ilyas\",\n        dari:nama,\n        pesan:message,\n        hadir:hadir,\n        jumlahhadir:jumlahhadir\n        \n    })\n  .then(data => {\n    console.log(data); // JSON data parsed by `data.json()` call\n  });\n    \n    return false\n    \n    };\n    \n\n\n\nasync function postData(url = '', data = {}) {\n  // Default options are marked with *\n  const response = await fetch(url, {\n    method: 'POST', // *GET, POST, PUT, DELETE, etc.\n    mode: 'cors', // no-cors, *cors, same-origin\n    cache: 'no-cache', // *default, no-cache, reload, force-cache, only-if-cached\n    credentials: 'same-origin', // include, *same-origin, omit\n    headers: {\n      'Content-Type': 'application/json'\n      // 'Content-Type': 'application/x-www-form-urlencoded',\n    },\n    redirect: 'follow', // manual, *follow, error\n    referrerPolicy: 'no-referrer', // no-referrer, *no-referrer-when-downgrade, origin, origin-when-cross-origin, same-origin, strict-origin, strict-origin-when-cross-origin, unsafe-url\n    body: JSON.stringify(data) // body data type must match \"Content-Type\" header\n  });\n  return response.json(); // parses JSON response into native JavaScript objects\n}\n\n\n</script>"
                        },
                        "elements": [],
                        "isInner": false,
                        "widgetType": "html",
                        "elType": "widget"
                      }
                    ],
                    "isInner": true,
                    "elType": "column"
                  },
                  {
                    "id": "4a6dd619",
                    "settings": {
                      "_column_size": 50,
                      "_inline_size": null,
                      "background_background": "classic",
                      "background_color": "#FFFFFF",
                      "border_radius": {
                        "unit": "px",
                        "top": "25",
                        "right": "25",
                        "bottom": "25",
                        "left": "25",
                        "isLinked": true
                      },
                      "padding": {
                        "unit": "px",
                        "top": "25",
                        "right": "25",
                        "bottom": "25",
                        "left": "25",
                        "isLinked": false
                      },
                      "margin_mobile": {
                        "unit": "px",
                        "top": "0",
                        "right": "0",
                        "bottom": "0",
                        "left": "0",
                        "isLinked": true
                      },
                      "padding_mobile": {
                        "unit": "px",
                        "top": "25",
                        "right": "25",
                        "bottom": "25",
                        "left": "25",
                        "isLinked": true
                      }
                    },
                    "elements": [
                      {
                        "id": "7b3a09ed",
                        "settings": {
                          "editor": "<p><b>Ucapan dan Doa<br /></b></p>",
                          "align": "center",
                          "text_color": "#B99225",
                          "typography_typography": "custom",
                          "typography_font_family": "Alex Brush",
                          "typography_font_size": {
                            "unit": "px",
                            "size": 72,
                            "sizes": []
                          },
                          "typography_font_weight": "400",
                          "custom_css": "selector{\n    line-height: 1;\n    padding-top: 25px\n}",
                          "typography_font_size_mobile": {
                            "unit": "px",
                            "size": 48,
                            "sizes": []
                          }
                        },
                        "elements": [],
                        "isInner": false,
                        "widgetType": "text-editor",
                        "elType": "widget"
                      },
                      {
                        "id": "31c29a58",
                        "settings": {
                          "editor": "<p>Ucapan Dan Doa .....</p>",
                          "align": "center",
                          "text_color": "#434343",
                          "typography_typography": "custom",
                          "typography_font_family": "Josefin Sans",
                          "typography_font_size": {
                            "unit": "px",
                            "size": 22,
                            "sizes": []
                          },
                          "typography_font_weight": "400",
                          "_css_classes": "ucapan-doa",
                          "custom_css": "selector{\n    max-height: 50vh;\n    overflow-y: scroll;\n    background-color: #E1D8C4\n}",
                          "_background_background": "classic",
                          "_background_color": "#FFFFFF"
                        },
                        "elements": [],
                        "isInner": false,
                        "widgetType": "text-editor",
                        "elType": "widget"
                      },
                      {
                        "id": "374698e2",
                        "settings": {
                          "html": "<script>\n    fetch('https://undangan-api.vercel.app/api/getdata/?kepada=latasya-ilyas')\n  .then(response => response.json())\n  .then(data => {\n      let ucapan=[]\n      data.map(v=>{\n          ucapan.push(`\n          <p style=\"font-size:16px\">\n          <b>\n          ${v.dari}\n          </b><br/>\n          ${v.pesan}\n          </p>\n          `)\n      })\n       let doa=document.getElementsByClassName(\"ucapan-doa\")[0]\n       console.log(doa)\n       doa.innerHTML=ucapan\n      \n  });\n  \n\n  \n</script>"
                        },
                        "elements": [],
                        "isInner": false,
                        "widgetType": "html",
                        "elType": "widget"
                      }
                    ],
                    "isInner": true,
                    "elType": "column"
                  }
                ],
                "isInner": true,
                "elType": "section"
              }
             
            ],
            "isInner": false,
            "elType": "column"
          }
        ],
        "isInner": false,
        "elType": "section"
      },
      {
        "id": "40f9bf75",
        "settings": {
          "background_background": "classic",
          "background_color": "#B99225",
          "padding": {
            "unit": "px",
            "top": "50",
            "right": "50",
            "bottom": "50",
            "left": "50",
            "isLinked": true
          },
          "z_index": 1
        },
        "elements": [
          {
            "id": "6f2aba65",
            "settings": {
              "_column_size": 100,
              "_inline_size": null
            },
            "elements": [
              {
                "id": "16d5270b",
                "settings": {
                  "image": {
                    "url": "https://my.possiblewedding.com/wp-content/uploads/2021/01/Watermark-Light.png",
                    "id": 243
                  },
                  "width_mobile": {
                    "unit": "%",
                    "size": 100,
                    "sizes": []
                  },
                  "space_mobile": {
                    "unit": "%",
                    "size": 99,
                    "sizes": []
                  }
                },
                "elements": [],
                "isInner": false,
                "widgetType": "image",
                "elType": "widget"
              },
              {
                "id": "83e4776",
                "settings": {
                  "social_icon_list": [
                    {
                      "social_icon": {
                        "value": "fab fa-instagram",
                        "library": "fa-brands"
                      },
                      "_id": "79b23ae",
                      "link": {
                        "url": "instagram.com/possiblewedding",
                        "is_external": "true",
                        "nofollow": "",
                        "custom_attributes": ""
                      }
                    },
                    {
                      "social_icon": {
                        "value": "fab fa-whatsapp",
                        "library": "fa-brands"
                      },
                      "_id": "59c8784",
                      "link": {
                        "url": "pesan.link/possiblewedding",
                        "is_external": "true",
                        "nofollow": "",
                        "custom_attributes": ""
                      }
                    }
                  ],
                  "icon_color": "custom",
                  "icon_primary_color": "#C0A565",
                  "icon_size": {
                    "unit": "px",
                    "size": 24,
                    "sizes": []
                  },
                  "icon_size_mobile": {
                    "unit": "px",
                    "size": 14,
                    "sizes": []
                  },
                  "border_radius": {
                    "unit": "px",
                    "top": "27",
                    "right": "27",
                    "bottom": "27",
                    "left": "27",
                    "isLinked": true
                  }
                },
                "elements": [],
                "isInner": false,
                "widgetType": "social-icons",
                "elType": "widget"
              }
            ],
            "isInner": false,
            "elType": "column"
          }
        ],
        "isInner": false,
        "elType": "section"
      },
      {
        "id": "46253f72",
        "settings": {
          "layout": "full_width",
          "height": "min-height",
          "custom_height": {
            "unit": "vh",
            "size": 100,
            "sizes": []
          },
          "background_background": "classic",
          "background_image": {
            "url": "https://my.possiblewedding.com/wp-content/uploads/2021/01/lilac-tiny-flowers-wooden-table-with-space-middle_23-2147699505.jpg",
            "id": 1525
          },
          "background_position": "center center",
          "background_repeat": "no-repeat",
          "background_size": "cover",
          "background_overlay_background": "classic",
          "background_overlay_color": "#FFFFFF",
          "background_overlay_opacity": {
            "unit": "px",
            "size": 0.65,
            "sizes": []
          },
          "custom_css": "selector{\n    position:fixed;\n    top:0;\n    left:0;\n    z-index: -1;\n    height: 100vh;\n    width:100vw;\n}",
          "background_color": "#B99225"
        },
        "elements": [
          {
            "id": "525dc1b9",
            "settings": {
              "_column_size": 100,
              "_inline_size": null
            },
            "elements": [],
            "isInner": false,
            "elType": "column"
          }
        ],
        "isInner": false,
        "elType": "section"
      }
    ]
  }