<?xml version="1.0" encoding="UTF-8" standalone="no"?>
<svg
   xmlns:dc="http://purl.org/dc/elements/1.1/"
   xmlns:cc="http://creativecommons.org/ns#"
   xmlns:rdf="http://www.w3.org/1999/02/22-rdf-syntax-ns#"
   xmlns:svg="http://www.w3.org/2000/svg"
   xmlns="http://www.w3.org/2000/svg"
   xmlns:sodipodi="http://sodipodi.sourceforge.net/DTD/sodipodi-0.dtd"
   xmlns:inkscape="http://www.inkscape.org/namespaces/inkscape"
   width="47.601585mm"
   height="47.601578mm"
   viewBox="0 0 47.601585 47.601578"
   version="1.1"
   id="svg8"
   inkscape:version="1.0.2 (e86c870879, 2021-01-15, custom)"
   sodipodi:docname="lansia.svg">
  <defs
     id="defs2" />
  <sodipodi:namedview
     id="base"
     pagecolor="#ffffff"
     bordercolor="#666666"
     borderopacity="1.0"
     inkscape:pageopacity="0.0"
     inkscape:pageshadow="2"
     inkscape:zoom="0.7"
     inkscape:cx="158.27095"
     inkscape:cy="204.27725"
     inkscape:document-units="mm"
     inkscape:current-layer="layer1-2"
     inkscape:document-rotation="0"
     showgrid="false"
     inkscape:window-width="1536"
     inkscape:window-height="1107"
     inkscape:window-x="190"
     inkscape:window-y="1152"
     inkscape:window-maximized="0" />
  <metadata
     id="metadata5">
    <rdf:RDF>
      <cc:Work
         rdf:about="">
        <dc:format>image/svg+xml</dc:format>
        <dc:type
           rdf:resource="http://purl.org/dc/dcmitype/StillImage" />
        <dc:title></dc:title>
      </cc:Work>
    </rdf:RDF>
  </metadata>
  <g
     inkscape:label="Layer 1"
     inkscape:groupmode="layer"
     id="layer1"
     transform="translate(-54.818252,-123.60993)">
    <g
       transform="translate(-113.39286,49.136905)"
       id="layer1-2"
       inkscape:label="Layer 1">
      <path
         style="fill:#d9ebeb;fill-opacity:1;fill-rule:nonzero;stroke:none;stroke-width:0.352777"
         d="m 215.45992,98.273114 c 0,12.950806 -10.49927,23.448696 -23.4487,23.448696 -12.94943,0 -23.44732,-10.49789 -23.44732,-23.448696 0,-12.94942 10.49789,-23.44731 23.44732,-23.44731 12.94943,0 23.4487,10.49789 23.4487,23.44731"
         id="path88988" />
      <path
         style="fill:none;stroke:#000000;stroke-width:0.705556;stroke-linecap:butt;stroke-linejoin:miter;stroke-miterlimit:10;stroke-opacity:1"
         d="m 215.45992,98.273119 c 0,12.950811 -10.49927,23.448701 -23.44871,23.448701 -12.94942,0 -23.44732,-10.49789 -23.44732,-23.448701 0,-12.94942 10.4979,-23.44732 23.44732,-23.44732 12.94944,0 23.44871,10.4979 23.44871,23.44732 z m 0,0"
         id="path89010" />
      <g
         id="g1054"
         transform="matrix(0.05741094,0,0,0.05741094,177.31468,83.57658)">
        <path
           style="fill:#0096dc"
           d="M 246.859,267.026 202.75,255.999 H 78.5 L 34.39,267.026 C 18.587,270.977 7.5,285.176 7.5,301.466 V 477.874 H 273.75 V 301.467 c 0,-16.291 -11.087,-30.49 -26.891,-34.441 z"
           id="path885" />
        <path
           style="fill:#b48764"
           d="m 246.859,267.026 -27.931,-6.982 c -5.428,13.258 -26.161,57.387 -73.184,90.131 -3.034,2.112 -7.204,2.112 -10.238,0 C 88.483,317.43 67.75,273.302 62.322,260.044 L 34.39,267.027 C 18.587,270.978 7.5,285.177 7.5,301.467 V 477.875 H 273.75 V 301.467 c 0,-16.291 -11.087,-30.491 -26.891,-34.441 z"
           id="path887" />
        <rect
           x="96.25"
           y="211.621"
           style="fill:#d29b6e"
           width="88.75"
           height="53.25"
           id="rect889" />
        <path
           style="fill:#f0c087"
           d="M 220.5,122.874 V 96.249 c 0,-34.311 -27.815,-62.125 -62.125,-62.125 h -35.5 c -34.31,0 -62.125,27.814 -62.125,62.125 v 26.625 c -9.803,0 -17.75,7.947 -17.75,17.75 0,9.803 7.947,17.75 17.75,17.75 0,44.114 35.761,79.875 79.875,79.875 44.114,0 79.875,-35.761 79.875,-79.875 9.803,0 17.75,-7.947 17.75,-17.75 0,-9.803 -7.947,-17.75 -17.75,-17.75 z"
           id="path891" />
        <path
           style="fill:#e6af78"
           d="M 105.125,158.374 V 96.249 c 0,-32.813 25.457,-59.617 57.688,-61.901 -1.472,-0.105 -2.939,-0.224 -4.438,-0.224 h -35.5 c -34.31,0 -62.125,27.814 -62.125,62.125 v 26.625 c -9.803,0 -17.75,7.947 -17.75,17.75 0,9.803 7.947,17.75 17.75,17.75 0,44.114 35.761,79.875 79.875,79.875 7.708,0 15.136,-1.151 22.188,-3.188 -33.307,-9.623 -57.688,-40.281 -57.688,-76.687 z"
           id="path893" />
        <g
           id="g899">
	<path
   style="fill:#d5dced"
   d="m 78.5,71.843 c 0,-9.803 -7.947,-17.75 -17.75,-17.75 -9.803,0 -17.75,7.946 -17.75,17.75 0,3.616 1.094,6.971 2.951,9.776 -9.358,2.605 -16.264,11.098 -16.264,21.286 0,12.254 9.933,22.188 22.188,22.188 12.255,0 22.188,-9.934 22.188,-22.188 0,-5.794 -2.273,-11.024 -5.91,-14.975 C 74.247,85.118 78.5,78.994 78.5,71.843 Z"
   id="path895" />

	<path
   style="fill:#d5dced"
   d="m 202.75,71.843 c 0,-9.803 7.947,-17.75 17.75,-17.75 9.803,0 17.75,7.947 17.75,17.75 0,3.616 -1.094,6.971 -2.951,9.776 9.358,2.605 16.264,11.098 16.264,21.286 0,12.254 -9.933,22.188 -22.188,22.188 -12.255,0 -22.188,-9.934 -22.188,-22.188 0,-5.794 2.273,-11.024 5.91,-14.975 -6.094,-2.812 -10.347,-8.936 -10.347,-16.087 z"
   id="path897" />

</g>
        <g
           id="g905">
	<path
   style="fill:#0096dc"
   d="M 47.753,314.002 14.365,280.614 C 10.057,286.529 7.5,293.74 7.5,301.466 V 477.875 H 60.75 V 345.38 c 0,-11.769 -4.675,-23.056 -12.997,-31.378 z"
   id="path901" />

	<path
   style="fill:#0096dc"
   d="m 233.497,314.002 33.388,-33.388 c 4.308,5.915 6.865,13.126 6.865,20.852 V 477.875 H 220.5 V 345.38 c 0,-11.769 4.675,-23.056 12.997,-31.378 z"
   id="path903" />

</g>
        <g
           id="g911">
	<path
   style="fill:#00aaf0"
   d="m 87.375,238.249 53.25,26.625 -19.751,26.335 c -3.481,4.641 -10.406,4.749 -14.03,0.219 L 78.5,255.999 Z"
   id="path907" />

	<path
   style="fill:#00aaf0"
   d="m 193.875,238.249 -53.25,26.625 19.751,26.335 c 3.481,4.641 10.406,4.749 14.03,0.219 l 28.343,-35.429 z"
   id="path909" />

</g>
        <g
           id="g917">
	<path
   style="fill:#c7cfe2"
   d="m 442.375,247.124 c 14.705,0 26.625,11.92 26.625,26.625 0,0.542 -0.127,1.048 -0.159,1.581 10.399,3.623 17.909,13.409 17.909,25.044 0,14.705 -11.92,26.625 -26.625,26.625 H 415.75 v -53.25 c 0,-14.705 11.92,-26.625 26.625,-26.625 z"
   id="path913" />

	<path
   style="fill:#c7cfe2"
   d="m 318.125,247.124 c -14.705,0 -26.625,11.92 -26.625,26.625 0,0.542 0.127,1.048 0.159,1.581 -10.399,3.623 -17.909,13.409 -17.909,25.044 0,14.705 11.92,26.625 26.625,26.625 h 44.375 v -53.25 c 0,-14.705 -11.92,-26.625 -26.625,-26.625 z"
   id="path915" />

</g>
        <path
           style="fill:#966d50"
           d="m 476.605,324.716 -49.698,-19.879 c -5.054,-2.022 -8.802,-6.199 -10.362,-11.223 l -0.795,-19.865 h -71 l -0.796,19.865 c -1.558,5.024 -5.308,9.201 -10.362,11.223 l -49.698,19.879 C 267.047,331.455 256,347.772 256,365.917 v 111.961 l 248.5,-0.004 V 365.917 c 0,-18.145 -11.047,-34.462 -27.895,-41.201 z"
           id="path919" />
        <path
           style="fill:#ffdc64"
           d="M 476.605,324.713 437.77,309.179 c -13.839,16.312 -34.456,26.692 -57.521,26.692 -23.066,0 -43.682,-10.38 -57.52,-26.692 l -38.835,15.534 C 267.047,331.451 256,347.769 256,365.914 v 111.96 l 248.5,-0.003 V 365.914 c 0,-18.145 -11.047,-34.462 -27.895,-41.201 z"
           id="path921" />
        <circle
           style="fill:#d5dced"
           cx="380.25"
           cy="167.25101"
           r="97.620003"
           id="circle923" />
        <path
           style="fill:#c7cfe2"
           d="m 344.75,167.249 c 0,-43.044 27.893,-79.506 66.563,-92.492 -9.768,-3.28 -20.19,-5.133 -31.063,-5.133 -53.917,0 -97.625,43.708 -97.625,97.625 0,53.917 43.708,97.625 97.625,97.625 10.873,0 21.295,-1.853 31.063,-5.133 -38.67,-12.986 -66.563,-49.448 -66.563,-92.492 z"
           id="path925" />
        <path
           style="fill:#c39772"
           d="m 380.25,300.374 v 0 c -44.114,0 -79.875,-35.761 -79.875,-79.875 v -18.666 c 0,-9.454 5.074,-18.123 13.208,-22.941 11.866,-7.03 21.006,-16.652 26.234,-22.943 2.811,-3.382 7.707,-4.193 11.351,-1.731 44.471,30.046 108.957,23.574 108.957,57.407 v 8.875 c 0,44.113 -35.761,79.874 -79.875,79.874 z"
           id="path927" />
        <path
           style="fill:#b48764"
           d="m 344.75,220.499 v -67.458 c -1.865,0.394 -3.631,1.341 -4.933,2.908 -5.228,6.291 -14.368,15.913 -26.234,22.943 -8.134,4.819 -13.208,13.487 -13.208,22.941 v 15.806 c 0,36.682 23.613,70.192 58.99,79.892 15.252,4.182 29.828,3.482 43.073,-0.345 -33.308,-9.623 -57.688,-40.281 -57.688,-76.687 z"
           id="path929" />
        <g
           id="g935">
	<path
   style="fill:#ffffff"
   d="m 415.75,198.311 c -7.345,0 -13.313,5.967 -13.313,13.313 0,7.346 5.967,13.313 13.313,13.313 7.346,0 13.313,-5.967 13.313,-13.313 0,-7.346 -5.968,-13.313 -13.313,-13.313 z"
   id="path931" />

	<path
   style="fill:#ffffff"
   d="m 344.75,198.311 c -7.345,0 -13.313,5.967 -13.313,13.313 0,7.346 5.967,13.313 13.313,13.313 7.346,0 13.313,-5.967 13.313,-13.313 0,-7.346 -5.968,-13.313 -13.313,-13.313 z"
   id="path933" />

</g>
        <g
           id="g943">
	<path
   style="fill:#ffc850"
   d="M 300.375,380.249 262.729,342.603 C 258.474,349.474 256,357.471 256,365.914 v 111.96 l 44.375,-0.001 z"
   id="path937" />

	<path
   style="fill:#ffc850"
   d="m 460.125,380.249 37.646,-37.646 c 4.255,6.871 6.729,14.868 6.729,23.311 v 111.96 l -44.375,-0.001 z"
   id="path939" />

	<path
   style="fill:#ffc850"
   d="m 380.25,371.374 c 38.467,0 72.445,-18.899 93.407,-47.841 L 437.77,309.178 c -13.839,16.312 -34.456,26.692 -57.521,26.692 -23.065,0 -43.682,-10.38 -57.521,-26.692 l -35.887,14.355 c 20.964,28.942 54.942,47.841 93.409,47.841 z"
   id="path941" />

</g>
        <path
           d="m 250.681,274.825 c 0.726,0.22 1.458,0.325 2.179,0.325 3.217,0 6.192,-2.087 7.174,-5.326 1.202,-3.964 -1.037,-8.151 -5.001,-9.354 l -49.108,-14.892 -5.342,-10.684 c -1.665,-3.331 -5.472,-4.872 -8.916,-3.805 v -1.859 c 20.336,-14.691 34.137,-37.895 36.094,-64.352 9.53,-2.663 17.029,-10.412 18.599,-20.072 0.991,-6.093 -0.303,-12.092 -3.265,-17.078 9.48,-4.963 15.968,-14.893 15.968,-26.314 0,-10.358 -5.489,-19.796 -14.024,-25.113 0.471,-1.936 0.712,-3.931 0.712,-5.949 0,-13.923 -11.327,-25.25 -25.25,-25.25 -3.34,0 -6.528,0.658 -9.448,1.841 -14.453,-13.13 -32.959,-20.32 -52.677,-20.32 h -35.5 c -19.631,0 -38.214,7.202 -52.679,20.319 -2.92,-1.183 -6.107,-1.84 -9.446,-1.84 -13.923,0 -25.25,11.327 -25.25,25.25 0,2.019 0.241,4.014 0.712,5.949 -8.536,5.317 -14.024,14.755 -14.024,25.113 0,11.415 6.48,21.339 15.95,26.305 -2.955,4.969 -4.242,10.966 -3.247,17.087 1.57,9.66 9.069,17.409 18.599,20.072 1.953,26.421 15.72,49.596 36.01,64.29 v 1.893 c -3.422,-1.016 -7.181,0.529 -8.833,3.832 L 75.33,245.568 24.32,260.871 C 9.773,265.236 0,278.372 0,293.559 v 184.315 c 0,4.142 3.358,7.5 7.5,7.5 4.142,0 7.5,-3.358 7.5,-7.5 V 293.559 c 0,-0.55 0.025,-1.094 0.07,-1.634 l 29.979,29.979 c 5.289,5.289 8.201,12.32 8.201,19.799 v 136.17 c 0,4.142 3.358,7.5 7.5,7.5 4.142,0 7.5,-3.358 7.5,-7.5 v -136.17 c 0,-11.486 -4.473,-22.284 -12.595,-30.406 L 22.627,278.269 c 1.768,-1.32 3.781,-2.363 6.003,-3.029 l 33.791,-10.137 c 2.646,7.437 22.296,58.513 74.044,93.011 1.26,0.84 2.71,1.26 4.16,1.26 1.45,0 2.9,-0.42 4.16,-1.26 53.481,-35.654 72.559,-88.359 74.129,-92.922 z m -60.16,-26.513 3.375,6.75 -25.345,31.682 c -0.348,0.435 -0.766,0.524 -1.096,0.516 -0.307,-0.005 -0.744,-0.104 -1.078,-0.55 L 152.018,267.564 Z M 230.75,70.353 c 0,2.002 -0.59,3.951 -1.705,5.636 -1.325,2.001 -1.612,4.515 -0.772,6.763 0.84,2.248 2.704,3.958 5.015,4.602 6.344,1.766 10.775,7.548 10.775,14.061 0,8.099 -6.589,14.688 -14.688,14.688 -8.099,0 -14.688,-6.589 -14.688,-14.688 0,-3.629 1.395,-7.144 3.928,-9.896 1.624,-1.764 2.306,-4.198 1.836,-6.549 -0.47,-2.351 -2.036,-4.336 -4.212,-5.34 -3.638,-1.679 -5.989,-5.32 -5.989,-9.277 0,-5.652 4.598,-10.25 10.25,-10.25 5.652,0 10.25,4.598 10.25,10.25 z M 47.962,87.355 c 2.312,-0.644 4.176,-2.354 5.015,-4.602 0.839,-2.248 0.552,-4.762 -0.772,-6.763 C 51.09,74.305 50.5,72.356 50.5,70.354 c 0,-5.652 4.598,-10.25 10.25,-10.25 5.652,0 10.25,4.597 10.25,10.249 0,3.957 -2.351,7.599 -5.989,9.277 -2.177,1.004 -3.743,2.989 -4.212,5.34 -0.47,2.351 0.212,4.785 1.836,6.549 2.533,2.752 3.928,6.267 3.928,9.896 0,8.099 -6.589,14.688 -14.688,14.688 -8.099,0 -14.688,-6.589 -14.688,-14.688 0.001,-6.512 4.431,-12.294 10.775,-14.06 z m 20.288,71.019 c 0,-4.142 -3.358,-7.5 -7.5,-7.5 -5.516,0 -10.269,-3.643 -11.054,-8.474 -0.895,-5.504 2.473,-10.567 7.833,-11.775 0.29,-0.065 0.569,-0.151 0.843,-0.247 13.254,-2.972 23.19,-14.825 23.19,-28.962 0,-4.587 -1.076,-9.066 -3.104,-13.125 C 83.19,83.622 86,77.182 86,70.353 86,65.29 84.496,60.573 81.92,56.616 93.367,46.926 107.734,41.624 122.875,41.624 h 35.5 c 15.208,0 29.532,5.276 40.967,14.974 -2.584,3.961 -4.092,8.684 -4.092,13.755 0,6.829 2.81,13.269 7.542,17.938 -2.029,4.059 -3.104,8.538 -3.104,13.125 0,14.422 10.34,26.47 23.995,29.134 0.23,0.094 0.466,0.179 0.709,0.251 4.289,1.281 8.126,5.676 7.163,11.6 -0.785,4.831 -5.538,8.474 -11.054,8.474 -4.142,0 -7.5,3.358 -7.5,7.5 0,39.908 -32.467,72.375 -72.375,72.375 -39.908,0 -72.376,-32.468 -72.376,-72.376 z m 72.375,87.375 c 12.844,0 25.047,-2.791 36.042,-7.79 v 0.509 L 140.625,256.489 104.5,238.427 v -0.503 c 11.016,5.022 23.249,7.825 36.125,7.825 z m -52.272,7.314 2.376,-4.751 38.504,19.252 -14.359,19.146 c -0.334,0.446 -0.771,0.545 -1.078,0.55 -0.328,0.026 -0.748,-0.081 -1.096,-0.516 L 87.555,255.313 c 0.383,-0.7 0.652,-1.459 0.798,-2.25 z m 52.272,89.707 C 107.049,318.907 88.978,287.676 81.298,271.503 l 19.689,24.611 c 3.133,3.916 7.778,6.146 12.779,6.146 0.088,0 0.176,-10e-4 0.264,-0.002 5.101,-0.08 9.782,-2.467 12.843,-6.548 l 6.251,-8.335 v 30.75 c 0,4.142 3.358,7.5 7.5,7.5 4.142,0 7.5,-3.358 7.5,-7.5 v -30.75 l 6.251,8.335 c 3.061,4.082 7.742,6.468 12.843,6.548 0.088,0.001 0.176,0.002 0.264,0.002 5.001,0 9.646,-2.23 12.779,-6.146 l 19.749,-24.687 c -7.618,16.129 -25.635,47.369 -59.385,71.343 z"
           id="path945" />
        <path
           d="m 164.2,189.724 c 2.609,-3.217 2.117,-7.94 -1.1,-10.549 -3.217,-2.61 -7.94,-2.117 -10.549,1.1 -3.19,3.934 -7.425,6.1 -11.925,6.1 -4.5,0 -8.735,-2.166 -11.925,-6.1 -2.608,-3.217 -7.332,-3.709 -10.549,-1.1 -3.217,2.609 -3.709,7.332 -1.1,10.549 6.005,7.404 14.598,11.65 23.575,11.65 8.977,0 17.567,-4.247 23.573,-11.65 z"
           id="path947" />
        <path
           d="m 105.125,133.124 c -4.142,0 -7.5,3.358 -7.5,7.5 v 8.875 c 0,4.142 3.358,7.5 7.5,7.5 4.142,0 7.5,-3.358 7.5,-7.5 v -8.875 c 0,-4.142 -3.358,-7.5 -7.5,-7.5 z"
           id="path949" />
        <path
           d="m 176.125,156.999 c 4.142,0 7.5,-3.358 7.5,-7.5 v -8.875 c 0,-4.142 -3.358,-7.5 -7.5,-7.5 -4.142,0 -7.5,3.358 -7.5,7.5 v 8.875 c 0,4.142 3.358,7.5 7.5,7.5 z"
           id="path951" />
        <path
           d="m 252.428,295.071 c -2.929,-2.929 -7.678,-2.929 -10.606,0 l -16.227,16.227 C 217.473,319.42 213,330.218 213,341.704 v 136.17 c 0,4.142 3.358,7.5 7.5,7.5 4.142,0 7.5,-3.358 7.5,-7.5 v -136.17 c 0,-7.479 2.913,-14.511 8.201,-19.799 l 16.227,-16.227 c 2.929,-2.929 2.929,-7.678 0,-10.607 z"
           id="path953" />
        <path
           d="m 380.25,263.499 c 8.977,0 17.569,-4.247 23.575,-11.65 2.609,-3.217 2.117,-7.94 -1.1,-10.549 -3.217,-2.61 -7.941,-2.117 -10.549,1.1 -3.19,3.934 -7.425,6.1 -11.925,6.1 -4.5,0 -8.735,-2.166 -11.925,-6.1 -2.608,-3.217 -7.332,-3.709 -10.549,-1.1 -3.217,2.609 -3.709,7.332 -1.1,10.549 6.004,7.403 14.596,11.65 23.573,11.65 z"
           id="path955" />
        <path
           d="m 300.375,372.749 c -4.142,0 -7.5,3.358 -7.5,7.5 v 97.625 c 0,4.142 3.358,7.5 7.5,7.5 4.142,0 7.5,-3.358 7.5,-7.5 v -97.625 c 0,-4.142 -3.358,-7.5 -7.5,-7.5 z"
           id="path957" />
        <path
           d="m 460.125,372.749 c -4.142,0 -7.5,3.358 -7.5,7.5 v 97.625 c 0,4.142 3.358,7.5 7.5,7.5 4.142,0 7.5,-3.358 7.5,-7.5 v -97.625 c 0,-4.142 -3.358,-7.5 -7.5,-7.5 z"
           id="path959" />
        <path
           d="m 486.928,321.496 c 4.685,-5.942 7.322,-13.349 7.322,-21.122 0,-12.639 -6.932,-23.95 -17.779,-29.834 0.02,-0.41 0.029,-0.819 0.029,-1.228 0,-9.749 -4.72,-18.673 -12.425,-24.165 0.51,-1.73 0.984,-3.472 1.384,-5.236 0.972,-4.283 1.592,-8.809 1.883,-13.769 11.805,-17.418 18.033,-37.738 18.033,-58.893 0,-57.966 -47.159,-105.125 -105.125,-105.125 -57.966,0 -105.125,47.159 -105.125,105.125 0,21.157 6.229,41.477 18.034,58.894 0.291,4.963 0.911,9.488 1.882,13.767 0.4,1.763 0.874,3.505 1.384,5.236 -7.705,5.492 -12.425,14.416 -12.425,24.166 0,0.409 0.01,0.818 0.029,1.228 -10.848,5.884 -17.779,17.196 -17.779,29.834 0,7.773 2.638,15.18 7.322,21.122 -15.456,9.274 -25.072,25.933 -25.072,44.421 v 111.961 c 0,4.142 3.358,7.5 7.5,7.5 4.142,0 7.5,-3.358 7.5,-7.5 V 365.917 c 0,-15.166 9.099,-28.605 23.18,-34.238 l 1.435,-0.574 c 22.183,29.98 56.357,47.769 92.136,47.769 36.268,0 69.693,-17.379 92.129,-47.771 l 1.441,0.576 c 14.082,5.633 23.18,19.072 23.18,34.238 v 111.957 c 0,4.142 3.358,7.5 7.5,7.5 4.142,0 7.5,-3.358 7.5,-7.5 V 365.917 C 512,347.429 502.384,330.77 486.928,321.496 Z M 461.5,269.312 c 0,1.109 -0.19,2.327 -0.6,3.832 -1.055,3.879 1.136,7.9 4.968,9.116 8.004,2.541 13.382,9.82 13.382,18.114 0,5.669 -2.508,10.989 -6.789,14.607 l -42.769,-17.108 c -1.54,-0.616 -2.87,-1.585 -3.924,-2.799 3.255,-1.984 6.39,-4.18 9.372,-6.59 9.635,-7.788 17.475,-17.552 23.034,-28.48 2.106,2.57 3.326,5.83 3.326,9.308 z m -113.14,32.51 c 10.102,3.957 20.928,6.052 31.89,6.052 10.962,0 21.788,-2.095 31.89,-6.052 2.663,4.237 6.544,7.602 11.228,9.652 -11.661,10.825 -26.915,16.899 -43.119,16.899 -16.187,0 -31.449,-6.079 -43.114,-16.901 4.684,-2.05 8.563,-5.415 11.225,-9.65 z M 290.125,167.249 c 0,-49.695 40.43,-90.125 90.125,-90.125 49.695,0 90.125,40.43 90.125,90.125 0,12.641 -2.597,24.93 -7.593,36.272 -10.806,-23.253 -34.824,-29.769 -58.189,-36.091 -18.889,-5.111 -38.421,-10.397 -55.159,-23.787 -1.769,-1.415 -4.084,-1.956 -6.294,-1.469 -2.212,0.486 -4.086,1.945 -5.099,3.971 -0.078,0.155 -7.935,15.603 -23.271,23.271 -3.705,1.852 -5.207,6.357 -3.354,10.062 1.852,3.705 6.356,5.208 10.062,3.354 12.207,-6.104 20.618,-15.796 25.36,-22.506 17.47,11.742 36.666,16.937 53.837,21.583 5.636,1.525 10.823,2.971 15.564,4.478 -0.164,-0.003 -0.326,-0.012 -0.49,-0.012 -9.14,0 -17.161,4.881 -21.593,12.174 -4.146,-2.134 -8.905,-3.299 -13.906,-3.299 -5.002,0 -9.762,1.165 -13.907,3.299 -4.433,-7.292 -12.454,-12.174 -21.593,-12.174 -13.923,0 -25.25,11.327 -25.25,25.25 0,13.923 11.327,25.25 25.25,25.25 12.976,0 23.693,-9.84 25.091,-22.45 2.447,-2.604 6.273,-4.175 10.409,-4.175 4.135,0 7.961,1.571 10.408,4.175 1.398,12.61 12.115,22.45 25.091,22.45 13.923,0 25.25,-11.327 25.25,-25.25 0,-7.294 -3.112,-13.872 -8.074,-18.485 10.726,5.845 17.323,14.005 19.768,28.417 -0.126,0.503 -0.206,1.025 -0.226,1.564 -0.179,5.001 -0.715,9.407 -1.637,13.471 -3.57,15.733 -12.492,30.019 -25.121,40.228 -12.995,10.504 -28.714,16.056 -45.46,16.056 -16.746,0 -32.466,-5.552 -45.46,-16.056 -12.629,-10.208 -21.55,-24.495 -25.121,-40.228 -0.92,-4.056 -1.456,-8.458 -1.636,-13.458 -0.072,-1.986 -0.911,-3.769 -2.227,-5.067 -10.263,-15.001 -15.68,-32.543 -15.68,-50.818 z M 426,211.624 c 0,5.652 -4.598,10.25 -10.25,10.25 -5.652,0 -10.25,-4.598 -10.25,-10.25 0,-5.652 4.598,-10.25 10.25,-10.25 5.652,0 10.25,4.598 10.25,10.25 z m -81.25,10.25 c -5.652,0 -10.25,-4.598 -10.25,-10.25 0,-5.652 4.598,-10.25 10.25,-10.25 5.652,0 10.25,4.598 10.25,10.25 0,5.652 -4.598,10.25 -10.25,10.25 z m -50.118,60.386 c 3.832,-1.216 6.022,-5.237 4.968,-9.116 -0.41,-1.505 -0.6,-2.723 -0.6,-3.832 0,-3.478 1.22,-6.738 3.326,-9.308 5.559,10.929 13.399,20.692 23.034,28.48 2.982,2.41 6.116,4.607 9.372,6.59 -1.054,1.214 -2.385,2.183 -3.925,2.799 l -42.768,17.107 c -4.281,-3.618 -6.788,-8.938 -6.788,-14.607 -10e-4,-8.293 5.377,-15.572 13.381,-18.113 z m 85.618,81.614 c -30.23,0 -58.166,-13.965 -77.672,-38.554 l 19.46,-7.783 c 14.887,16.476 35.845,25.837 58.213,25.837 22.389,0 43.325,-9.358 58.211,-25.838 l 19.467,7.787 c -19.515,24.581 -47.498,38.551 -77.679,38.551 z"
           id="path961" />
        <g
           id="g963">
</g>
        <g
           id="g965">
</g>
        <g
           id="g967">
</g>
        <g
           id="g969">
</g>
        <g
           id="g971">
</g>
        <g
           id="g973">
</g>
        <g
           id="g975">
</g>
        <g
           id="g977">
</g>
        <g
           id="g979">
</g>
        <g
           id="g981">
</g>
        <g
           id="g983">
</g>
        <g
           id="g985">
</g>
        <g
           id="g987">
</g>
        <g
           id="g989">
</g>
        <g
           id="g991">
</g>
      </g>
    </g>
  </g>
</svg>
